M48
; DRILL file {KiCad 7.0.9-7.0.9~ubuntu22.04.1} date sex 24 nov 2023 11:35:05
; FORMAT={-:-/ absolute / inch / decimal}
; #@! TF.CreationDate,2023-11-24T11:35:05-03:00
; #@! TF.GenerationSoftware,Kicad,Pcbnew,7.0.9-7.0.9~ubuntu22.04.1
; #@! TF.FileFunction,Plated,1,4,PTH
FMAT,2
INCH
; #@! TA.AperFunction,Plated,PTH,ViaDrill
T1C0.0079
; #@! TA.AperFunction,Plated,PTH,ViaDrill
T2C0.0118
; #@! TA.AperFunction,Plated,PTH,ViaDrill
T3C0.0157
; #@! TA.AperFunction,Plated,PTH,ComponentDrill
T4C0.0256
; #@! TA.AperFunction,Plated,PTH,ComponentDrill
T5C0.0315
; #@! TA.AperFunction,Plated,PTH,ComponentDrill
T6C0.0354
; #@! TA.AperFunction,Plated,PTH,ComponentDrill
T7C0.0394
; #@! TA.AperFunction,Plated,PTH,ComponentDrill
T8C0.0402
; #@! TA.AperFunction,Plated,PTH,ComponentDrill
T9C0.0630
%
G90
G05
T1
X4.4012Y-3.1234
X4.4016Y-3.3346
X4.6614Y-3.1223
X4.6614Y-3.3346
X4.685Y-3.0984
X4.685Y-3.3583
X4.7086Y-3.3347
X4.7087Y-3.122
X4.7323Y-3.0984
X4.7323Y-3.3583
X4.7545Y-3.336
X4.7559Y-3.122
X4.7795Y-3.0984
X4.7795Y-3.3583
X4.8004Y-3.3374
X4.8031Y-3.122
X4.8268Y-3.0945
X4.8268Y-3.3583
X4.8483Y-3.3407
X4.8504Y-3.122
X4.874Y-3.0945
X4.874Y-3.3583
X4.8976Y-3.122
X4.8976Y-3.3386
X4.9213Y-3.0945
X4.9213Y-3.3583
X4.9449Y-3.122
X4.9449Y-3.3386
X4.9685Y-3.0945
X4.9685Y-3.3583
X4.9921Y-3.122
X4.9921Y-3.3386
X5.0157Y-3.0945
X5.0157Y-3.3583
X5.0394Y-3.122
X5.0394Y-3.3386
X5.063Y-3.0945
X5.063Y-3.3583
X5.0866Y-3.122
X5.0866Y-3.3386
X5.1102Y-3.0945
X5.1102Y-3.3583
X5.1339Y-3.122
X5.1339Y-3.3386
X5.1575Y-3.0945
X5.1575Y-3.3583
X5.1811Y-3.122
X5.1811Y-3.3386
X5.4409Y-3.0787
X5.4409Y-3.3583
X5.4646Y-3.3396
X5.4744Y-2.3957
X5.4882Y-3.3583
X5.5118Y-3.3386
X5.5122Y-3.0902
X5.5197Y-2.0315
X5.5354Y-3.3583
X5.5512Y-2.3957
X5.5591Y-3.3386
X5.5827Y-3.3583
X5.5835Y-3.1015
X5.6063Y-3.3386
X5.6299Y-3.3583
X5.6527Y-3.1111
X5.6535Y-3.3386
X5.6772Y-3.3583
X5.7008Y-3.3386
X5.7047Y-3.7087
X5.7244Y-3.1142
X5.7244Y-3.3583
X5.7323Y-3.6811
X5.748Y-3.3386
X5.7717Y-3.3583
X5.7953Y-3.0945
X5.7953Y-3.3346
X5.8189Y-3.122
X5.8189Y-3.3583
X5.8425Y-3.0945
X5.8661Y-3.0669
X5.8898Y-3.122
X5.9094Y-3.0945
X6.0591Y-3.1181
X6.0787Y-3.0945
X6.1024Y-3.1102
X6.126Y-3.0945
X6.1496Y-3.1102
X6.1732Y-3.0945
X6.1971Y-3.1053
X6.2203Y-3.0946
X6.2441Y-3.1053
X6.252Y-3.2283
X6.2677Y-3.3583
X6.2905Y-3.003
X6.2913Y-3.3386
X6.3149Y-2.9952
X6.315Y-3.1053
X6.3386Y-3.3386
X6.3391Y-3.0236
X6.3581Y-3.0472
X6.3622Y-3.3583
X6.3861Y-3.1053
X6.4094Y-3.3583
X6.4152Y-3.0747
X6.4324Y-3.338
X6.4331Y-3.1024
X6.4573Y-3.0943
X6.4803Y-3.1102
X6.4803Y-3.3386
X6.5039Y-3.0945
X6.5039Y-3.3583
X6.5276Y-3.1102
X6.5512Y-3.0945
X6.5512Y-3.3583
X6.5748Y-3.122
X6.5748Y-3.3386
X6.5984Y-3.0945
X6.5984Y-3.3583
X6.622Y-3.122
X6.622Y-3.3386
X6.6457Y-3.0945
X6.6457Y-3.3583
X6.6693Y-3.122
X6.6693Y-3.3386
X6.685Y-3.5709
X6.6929Y-3.0945
X6.6929Y-3.3583
X6.7126Y-4.2165
X6.7165Y-3.122
X6.7165Y-3.3386
X6.7402Y-3.0945
X6.7402Y-3.3583
X6.7638Y-3.122
X6.7638Y-3.3386
X6.7874Y-3.0945
X6.7874Y-3.3583
X6.8031Y-3.5236
X6.8031Y-3.5709
X6.811Y-3.122
X6.811Y-3.3386
X6.8346Y-3.0945
X6.8583Y-3.122
X6.8819Y-3.0945
X6.9045Y-3.3346
X6.9055Y-3.122
X6.9262Y-3.5709
X6.9291Y-3.0945
X6.9291Y-3.374
X6.9528Y-3.122
X6.9528Y-3.4134
X6.9764Y-3.0945
X6.9764Y-3.3346
X7.0Y-3.122
X7.0Y-3.374
X7.0236Y-3.0906
X7.0236Y-3.4134
X7.0394Y-3.5709
X7.0472Y-3.122
X7.0472Y-3.3366
X7.0635Y-3.3856
X7.0709Y-3.0906
X7.0841Y-3.4258
X7.0906Y-2.8346
X7.0945Y-3.122
X7.0984Y-2.5866
X7.1092Y-3.391
X7.1181Y-3.0906
X7.126Y-4.0157
X7.1442Y-3.3439
X7.1654Y-3.0984
X7.1752Y-3.3563
X7.19Y-3.122
X7.1959Y-3.3346
X7.2126Y-3.0827
X7.2126Y-3.374
X7.2366Y-3.0469
X7.2372Y-3.3346
X7.2598Y-3.0079
X7.2598Y-3.374
X7.2825Y-2.9685
X7.2835Y-3.3346
X7.3071Y-3.122
X7.3071Y-3.374
X7.3307Y-3.3346
X7.3543Y-3.0472
X7.3543Y-3.0787
X7.3543Y-3.374
X7.378Y-3.122
X7.378Y-3.3346
X7.4213Y-2.8189
X7.437Y-3.6102
X7.4803Y-3.6102
X7.5039Y-3.2598
X7.5307Y-3.6562
X7.5974Y-3.6556
X7.5974Y-3.7008
X7.6417Y-3.9409
T2
X5.9449Y-3.2677
X6.0827Y-1.7008
X6.0938Y-3.2291
X6.1725Y-3.2291
X6.2126Y-1.7913
X6.314Y-3.3573
X6.3858Y-3.3386
X6.4545Y-3.3561
X6.5049Y-4.6112
X6.5276Y-3.3386
X6.6256Y-3.8472
X6.752Y-4.5079
X6.7539Y-3.8484
X6.7913Y-2.3228
X6.7913Y-2.4213
X6.8622Y-3.8484
X6.9813Y-3.8484
X7.098Y-3.8484
X7.3524Y-3.5217
X7.3524Y-3.561
X7.3917Y-3.5217
X7.3917Y-3.561
X7.3917Y-4.2815
X7.3917Y-4.3209
X7.4311Y-4.2815
X7.4311Y-4.3209
X7.5315Y-4.4764
X7.5886Y-3.5728
X7.5886Y-3.6024
X7.5891Y-3.5438
T3
X5.7874Y-1.6535
X5.8858Y-1.6535
X5.9055Y-1.3583
X5.9843Y-1.6535
X6.0039Y-1.3583
X6.1024Y-1.3583
X6.4173Y-3.7992
X6.4173Y-3.878
X6.4173Y-3.9567
X6.4961Y-3.7992
X6.4961Y-3.878
X6.4961Y-3.9567
X6.5748Y-1.3976
X6.5748Y-1.4764
X6.5748Y-1.5551
X6.5748Y-1.6142
X6.5748Y-1.6732
X6.5748Y-1.7323
X6.5748Y-1.7913
X6.5748Y-1.8701
X6.5748Y-1.9488
X6.6535Y-1.3976
X6.6535Y-1.4764
X6.6535Y-1.5551
X6.6535Y-1.6142
X6.6535Y-1.6732
X6.6535Y-1.7323
X6.6535Y-1.7913
X6.6535Y-1.8701
X6.6535Y-1.9488
X6.7323Y-1.3976
X6.7323Y-1.4764
X6.7323Y-1.8701
X6.7323Y-1.9488
X6.811Y-1.3976
X6.811Y-1.4764
X6.811Y-1.8701
X6.811Y-1.9488
X6.8898Y-1.3976
X6.8898Y-1.4764
X6.8898Y-1.8701
X6.8898Y-1.9488
X6.9685Y-1.3976
X6.9685Y-1.4764
X6.9685Y-1.8701
X6.9685Y-1.9488
X7.1063Y-1.8701
X7.1063Y-1.9488
X7.185Y-1.8701
X7.185Y-1.9488
X7.2638Y-1.8701
X7.2638Y-1.9488
X7.3425Y-1.8701
X7.3425Y-1.9488
T4
X7.6705Y-4.0346
X7.6705Y-4.0846
X7.6705Y-4.1346
X7.6705Y-4.1846
X7.6705Y-4.2346
X7.6705Y-4.2846
X7.6705Y-4.3346
X7.7205Y-4.0346
X7.7205Y-4.0846
X7.7205Y-4.1346
X7.7205Y-4.1846
X7.7205Y-4.2346
X7.7205Y-4.2846
X7.7205Y-4.3346
T5
X6.8661Y-4.6378
X6.8661Y-4.7378
X6.8661Y-4.8378
X7.0661Y-4.6378
X7.0661Y-4.7378
X7.0661Y-4.8378
T6
X7.0654Y-2.2091
X7.0654Y-2.3091
X7.0654Y-2.4091
X7.0654Y-2.5091
X7.1654Y-2.2591
X7.1654Y-2.3591
X7.1654Y-2.4591
X7.1654Y-2.5591
T7
X4.0945Y-4.9394
X4.0945Y-5.0394
X4.1945Y-4.9394
X4.1945Y-5.0394
X4.252Y-1.5354
X4.252Y-1.6354
X4.252Y-1.7354
X4.252Y-1.8354
X4.252Y-1.9354
X4.252Y-2.0354
X4.252Y-2.3622
X4.252Y-2.4622
X4.252Y-2.5622
X4.252Y-2.6622
X4.252Y-2.7622
X4.252Y-2.8622
X4.252Y-3.7402
X4.252Y-3.8402
X4.252Y-3.9402
X4.252Y-4.0402
X4.252Y-4.1402
X4.252Y-4.2402
X4.2945Y-4.9394
X4.2945Y-5.0394
X4.352Y-1.5354
X4.352Y-1.6354
X4.352Y-1.7354
X4.352Y-1.8354
X4.352Y-1.9354
X4.352Y-2.0354
X4.352Y-2.3622
X4.352Y-2.4622
X4.352Y-2.5622
X4.352Y-2.6622
X4.352Y-2.7622
X4.352Y-2.8622
X4.352Y-3.7402
X4.352Y-3.8402
X4.352Y-3.9402
X4.352Y-4.0402
X4.352Y-4.1402
X4.352Y-4.2402
X4.3945Y-4.9394
X4.3945Y-5.0394
X4.4945Y-4.9394
X4.4945Y-5.0394
X4.5945Y-4.9394
X4.5945Y-5.0394
X4.6063Y-1.5354
X4.6063Y-1.6354
X4.6063Y-1.7354
X4.6063Y-1.8354
X4.6063Y-1.9354
X4.6063Y-2.0354
X4.6063Y-2.3583
X4.6063Y-2.4583
X4.6063Y-2.5583
X4.6063Y-2.6583
X4.6063Y-2.7583
X4.6063Y-2.8583
X4.6063Y-3.7402
X4.6063Y-3.8402
X4.6063Y-3.9402
X4.6063Y-4.0402
X4.6063Y-4.1402
X4.6063Y-4.2402
X4.6945Y-4.9394
X4.6945Y-5.0394
X4.7063Y-1.5354
X4.7063Y-1.6354
X4.7063Y-1.7354
X4.7063Y-1.8354
X4.7063Y-1.9354
X4.7063Y-2.0354
X4.7063Y-2.3583
X4.7063Y-2.4583
X4.7063Y-2.5583
X4.7063Y-2.6583
X4.7063Y-2.7583
X4.7063Y-2.8583
X4.7063Y-3.7402
X4.7063Y-3.8402
X4.7063Y-3.9402
X4.7063Y-4.0402
X4.7063Y-4.1402
X4.7063Y-4.2402
X4.7945Y-4.9394
X4.7945Y-5.0394
X4.8945Y-4.9394
X4.8945Y-5.0394
X4.9606Y-1.5354
X4.9606Y-1.6354
X4.9606Y-1.7354
X4.9606Y-1.8354
X4.9606Y-1.9354
X4.9606Y-2.0354
X4.9606Y-2.3622
X4.9606Y-2.4622
X4.9606Y-2.5622
X4.9606Y-2.6622
X4.9606Y-2.7622
X4.9606Y-2.8622
X4.9606Y-3.7402
X4.9606Y-3.8402
X4.9606Y-3.9402
X4.9606Y-4.0402
X4.9606Y-4.1402
X4.9606Y-4.2402
X4.9945Y-4.9394
X4.9945Y-5.0394
X5.0606Y-1.5354
X5.0606Y-1.6354
X5.0606Y-1.7354
X5.0606Y-1.8354
X5.0606Y-1.9354
X5.0606Y-2.0354
X5.0606Y-2.3622
X5.0606Y-2.4622
X5.0606Y-2.5622
X5.0606Y-2.6622
X5.0606Y-2.7622
X5.0606Y-2.8622
X5.0606Y-3.7402
X5.0606Y-3.8402
X5.0606Y-3.9402
X5.0606Y-4.0402
X5.0606Y-4.1402
X5.0606Y-4.2402
X5.0945Y-4.9394
X5.0945Y-5.0394
X5.1945Y-4.9394
X5.1945Y-5.0394
X5.2945Y-4.9394
X5.2945Y-5.0394
X5.3945Y-4.9394
X5.3945Y-5.0394
X5.4055Y-2.1457
X5.4134Y-1.3902
X5.4134Y-1.4902
X5.4882Y-3.7402
X5.4882Y-3.8402
X5.4882Y-3.9402
X5.4882Y-4.0402
X5.4882Y-4.1402
X5.4882Y-4.2402
X5.4882Y-4.3402
X5.4882Y-4.4402
X5.4882Y-4.5402
X5.4945Y-4.9394
X5.4945Y-5.0394
X5.5055Y-2.1457
X5.5134Y-1.3902
X5.5134Y-1.4902
X5.5882Y-3.7402
X5.5882Y-3.8402
X5.5882Y-3.9402
X5.5882Y-4.0402
X5.5882Y-4.1402
X5.5882Y-4.2402
X5.5882Y-4.3402
X5.5882Y-4.4402
X5.5882Y-4.5402
X5.5945Y-1.748
X5.5945Y-4.9394
X5.5945Y-5.0394
X5.6055Y-2.1457
X5.6134Y-1.3902
X5.6134Y-1.4902
X5.6535Y-2.522
X5.6535Y-2.622
X5.6945Y-1.748
X5.6945Y-4.9394
X5.6945Y-5.0394
X5.7055Y-2.1457
X5.7134Y-1.3902
X5.7134Y-1.4902
X5.7535Y-2.522
X5.7535Y-2.622
X5.7945Y-1.748
X5.7945Y-4.9394
X5.7945Y-5.0394
X5.8055Y-2.1457
X5.8134Y-1.3902
X5.8134Y-1.4902
X5.8535Y-2.522
X5.8535Y-2.622
X5.8945Y-1.748
X5.9055Y-2.1457
X5.9535Y-2.522
X5.9535Y-2.622
X6.0535Y-2.522
X6.0535Y-2.622
X6.1209Y-3.7421
X6.1209Y-3.8421
X6.1209Y-3.9421
X6.1209Y-4.0421
X6.1535Y-2.522
X6.1535Y-2.622
X6.2535Y-2.522
X6.2535Y-2.622
X6.2543Y-1.4252
X6.3031Y-4.255
X6.3031Y-4.355
X6.3031Y-4.455
X6.3031Y-4.555
X6.3031Y-4.655
X6.3031Y-4.755
X6.3031Y-4.855
X6.3031Y-4.955
X6.3039Y-3.7421
X6.3039Y-3.8421
X6.3039Y-3.9421
X6.3039Y-4.0421
X6.3535Y-2.522
X6.3535Y-2.622
X6.3543Y-1.4252
X7.752Y-4.6142
X7.752Y-4.7142
X7.752Y-4.8142
X7.752Y-4.9142
X7.752Y-5.0142
X7.752Y-5.1142
T8
X7.6083Y-2.1228
X7.6083Y-2.2228
X7.6083Y-2.5449
X7.6083Y-2.6449
T9
X7.2953Y-2.0791
X7.2953Y-2.689
T5
G00X7.2441Y-1.626
M15
G01X7.2441Y-1.5236
M16
G05
G00X7.4055Y-1.3858
M15
G01X7.3189Y-1.3858
M16
G05
G00X7.4724Y-1.6181
M15
G01X7.4724Y-1.5315
M16
G05
T0
M30
