<?xml version="1.0" encoding="UTF-8" standalone="no"?>
<!-- Created with Inkscape (http://www.inkscape.org/) -->

<svg
   xmlns:dc="http://purl.org/dc/elements/1.1/"
   xmlns:cc="http://creativecommons.org/ns#"
   xmlns:rdf="http://www.w3.org/1999/02/22-rdf-syntax-ns#"
   xmlns:svg="http://www.w3.org/2000/svg"
   xmlns="http://www.w3.org/2000/svg"
   xmlns:sodipodi="http://sodipodi.sourceforge.net/DTD/sodipodi-0.dtd"
   xmlns:inkscape="http://www.inkscape.org/namespaces/inkscape"
   width="210mm"
   height="297mm"
   viewBox="0 0 210 297"
   version="1.1"
   id="svg8"
   inkscape:version="0.92.3 (2405546, 2018-03-11)"
   sodipodi:docname="debug-base.svg">
  <defs
     id="defs2">
    <marker
       inkscape:stockid="Arrow1Mend"
       orient="auto"
       refY="0.0"
       refX="0.0"
       id="Arrow1Mend"
       style="overflow:visible;"
       inkscape:isstock="true">
      <path
         id="path2043"
         d="M 0.0,0.0 L 5.0,-5.0 L -12.5,0.0 L 5.0,5.0 L 0.0,0.0 z "
         style="fill-rule:evenodd;stroke:#000000;stroke-width:1pt;stroke-opacity:1;fill:#000000;fill-opacity:1"
         transform="scale(0.4) rotate(180) translate(10,0)" />
    </marker>
    <marker
       inkscape:stockid="Arrow1Lend"
       orient="auto"
       refY="0.0"
       refX="0.0"
       id="Arrow1Lend"
       style="overflow:visible;"
       inkscape:isstock="true">
      <path
         id="path2037"
         d="M 0.0,0.0 L 5.0,-5.0 L -12.5,0.0 L 5.0,5.0 L 0.0,0.0 z "
         style="fill-rule:evenodd;stroke:#000000;stroke-width:1pt;stroke-opacity:1;fill:#000000;fill-opacity:1"
         transform="scale(0.8) rotate(180) translate(12.5,0)" />
    </marker>
  </defs>
  <sodipodi:namedview
     id="base"
     pagecolor="#ffffff"
     bordercolor="#666666"
     borderopacity="1.0"
     inkscape:pageopacity="0.0"
     inkscape:pageshadow="2"
     inkscape:zoom="1.4"
     inkscape:cx="311.46448"
     inkscape:cy="810.40357"
     inkscape:document-units="mm"
     inkscape:current-layer="layer1"
     showgrid="false"
     inkscape:measure-start="0,0"
     inkscape:measure-end="0,0"
     inkscape:snap-global="true"
     inkscape:window-width="1888"
     inkscape:window-height="1051"
     inkscape:window-x="1920"
     inkscape:window-y="0"
     inkscape:window-maximized="1" />
  <metadata
     id="metadata5">
    <rdf:RDF>
      <cc:Work
         rdf:about="">
        <dc:format>image/svg+xml</dc:format>
        <dc:type
           rdf:resource="http://purl.org/dc/dcmitype/StillImage" />
        <dc:title></dc:title>
      </cc:Work>
    </rdf:RDF>
  </metadata>
  <g
     inkscape:label="Layer 1"
     inkscape:groupmode="layer"
     id="layer1"
     style="opacity:0.96">
    <rect
       style="fill:none;fill-opacity:1;stroke:#000000;stroke-width:0.5;stroke-linecap:round;stroke-miterlimit:4;stroke-dasharray:none;stroke-dashoffset:0;stroke-opacity:1"
       id="rect815"
       width="100"
       height="100"
       x="26.269344"
       y="35.0625"
       ry="0" />
    <rect
       style="opacity:0.95999995;fill:none;fill-opacity:1;stroke:#000000;stroke-width:0.5;stroke-linecap:round;stroke-miterlimit:4;stroke-dasharray:none;stroke-dashoffset:0;stroke-opacity:1"
       id="rect815-8"
       width="96"
       height="7.9000001"
       x="28.241074"
       y="38.735123"
       ry="0" />
    <g
       id="g1241"
       transform="translate(-7.2162772,24.588797)">
      <rect
         y="68.4189"
         x="36.474705"
         height="2.54"
         width="2.54"
         id="rect1142"
         style="fill:none;fill-opacity:1;stroke:#000000;stroke-width:0.5;stroke-linecap:round;stroke-miterlimit:4;stroke-dasharray:none;stroke-dashoffset:0;stroke-opacity:1" />
      <rect
         y="68.4189"
         x="39.014706"
         height="2.5400002"
         width="2.5400002"
         id="rect1142-4"
         style="opacity:0.95999995;fill:none;fill-opacity:1;stroke:#000000;stroke-width:0.5;stroke-linecap:round;stroke-miterlimit:4;stroke-dasharray:none;stroke-dashoffset:0;stroke-opacity:1" />
      <rect
         y="70.9589"
         x="36.474705"
         height="2.5400002"
         width="2.5400002"
         id="rect1142-9"
         style="opacity:0.95999995;fill:none;fill-opacity:1;stroke:#000000;stroke-width:0.5;stroke-linecap:round;stroke-miterlimit:4;stroke-dasharray:none;stroke-dashoffset:0;stroke-opacity:1" />
      <rect
         y="70.9589"
         x="39.014706"
         height="2.5400004"
         width="2.5400004"
         id="rect1142-4-3"
         style="opacity:0.95999995;fill:none;fill-opacity:1;stroke:#000000;stroke-width:0.5;stroke-linecap:round;stroke-miterlimit:4;stroke-dasharray:none;stroke-dashoffset:0;stroke-opacity:1" />
      <rect
         y="73.498901"
         x="36.474705"
         height="2.5400002"
         width="2.5400002"
         id="rect1142-5"
         style="opacity:0.95999995;fill:none;fill-opacity:1;stroke:#000000;stroke-width:0.5;stroke-linecap:round;stroke-miterlimit:4;stroke-dasharray:none;stroke-dashoffset:0;stroke-opacity:1" />
      <rect
         y="73.498901"
         x="39.014706"
         height="2.5400004"
         width="2.5400004"
         id="rect1142-4-7"
         style="opacity:0.95999995;fill:none;fill-opacity:1;stroke:#000000;stroke-width:0.5;stroke-linecap:round;stroke-miterlimit:4;stroke-dasharray:none;stroke-dashoffset:0;stroke-opacity:1" />
      <rect
         y="76.038902"
         x="36.474705"
         height="2.5400002"
         width="2.5400002"
         id="rect1142-0"
         style="opacity:0.95999995;fill:none;fill-opacity:1;stroke:#000000;stroke-width:0.5;stroke-linecap:round;stroke-miterlimit:4;stroke-dasharray:none;stroke-dashoffset:0;stroke-opacity:1" />
      <rect
         y="76.038902"
         x="39.014706"
         height="2.5400004"
         width="2.5400004"
         id="rect1142-4-8"
         style="opacity:0.95999995;fill:none;fill-opacity:1;stroke:#000000;stroke-width:0.5;stroke-linecap:round;stroke-miterlimit:4;stroke-dasharray:none;stroke-dashoffset:0;stroke-opacity:1" />
      <rect
         y="78.578903"
         x="36.474705"
         height="2.5400002"
         width="2.5400002"
         id="rect1142-1"
         style="opacity:0.95999995;fill:none;fill-opacity:1;stroke:#000000;stroke-width:0.5;stroke-linecap:round;stroke-miterlimit:4;stroke-dasharray:none;stroke-dashoffset:0;stroke-opacity:1" />
      <rect
         y="78.578903"
         x="39.014706"
         height="2.5400004"
         width="2.5400004"
         id="rect1142-4-9"
         style="opacity:0.95999995;fill:none;fill-opacity:1;stroke:#000000;stroke-width:0.5;stroke-linecap:round;stroke-miterlimit:4;stroke-dasharray:none;stroke-dashoffset:0;stroke-opacity:1" />
    </g>
    <rect
       style="opacity:0.95999995;fill:none;fill-opacity:1;stroke:#000000;stroke-width:0.5;stroke-linecap:round;stroke-miterlimit:4;stroke-dasharray:none;stroke-dashoffset:0;stroke-opacity:1"
       id="rect1142-97"
       width="2.5400002"
       height="2.5400002"
       x="13.754554"
       y="78.67717" />
    <g
       transform="translate(-7.216405,38.065348)"
       style="opacity:0.95999995"
       id="g1241-8">
      <rect
         y="68.4189"
         x="36.474705"
         height="2.54"
         width="2.54"
         id="rect1142-2"
         style="fill:none;fill-opacity:1;stroke:#000000;stroke-width:0.5;stroke-linecap:round;stroke-miterlimit:4;stroke-dasharray:none;stroke-dashoffset:0;stroke-opacity:1" />
      <rect
         y="68.4189"
         x="39.014706"
         height="2.5400002"
         width="2.5400002"
         id="rect1142-4-5"
         style="opacity:0.95999995;fill:none;fill-opacity:1;stroke:#000000;stroke-width:0.5;stroke-linecap:round;stroke-miterlimit:4;stroke-dasharray:none;stroke-dashoffset:0;stroke-opacity:1" />
      <rect
         y="70.9589"
         x="36.474705"
         height="2.5400002"
         width="2.5400002"
         id="rect1142-9-3"
         style="opacity:0.95999995;fill:none;fill-opacity:1;stroke:#000000;stroke-width:0.5;stroke-linecap:round;stroke-miterlimit:4;stroke-dasharray:none;stroke-dashoffset:0;stroke-opacity:1" />
      <rect
         y="70.9589"
         x="39.014706"
         height="2.5400004"
         width="2.5400004"
         id="rect1142-4-3-4"
         style="opacity:0.95999995;fill:none;fill-opacity:1;stroke:#000000;stroke-width:0.5;stroke-linecap:round;stroke-miterlimit:4;stroke-dasharray:none;stroke-dashoffset:0;stroke-opacity:1" />
      <rect
         y="73.498901"
         x="36.474705"
         height="2.5400002"
         width="2.5400002"
         id="rect1142-5-9"
         style="opacity:0.95999995;fill:none;fill-opacity:1;stroke:#000000;stroke-width:0.5;stroke-linecap:round;stroke-miterlimit:4;stroke-dasharray:none;stroke-dashoffset:0;stroke-opacity:1" />
      <rect
         y="73.498901"
         x="39.014706"
         height="2.5400004"
         width="2.5400004"
         id="rect1142-4-7-0"
         style="opacity:0.95999995;fill:none;fill-opacity:1;stroke:#000000;stroke-width:0.5;stroke-linecap:round;stroke-miterlimit:4;stroke-dasharray:none;stroke-dashoffset:0;stroke-opacity:1" />
      <rect
         y="76.038902"
         x="36.474705"
         height="2.5400002"
         width="2.5400002"
         id="rect1142-0-2"
         style="opacity:0.95999995;fill:none;fill-opacity:1;stroke:#000000;stroke-width:0.5;stroke-linecap:round;stroke-miterlimit:4;stroke-dasharray:none;stroke-dashoffset:0;stroke-opacity:1" />
      <rect
         y="76.038902"
         x="39.014706"
         height="2.5400004"
         width="2.5400004"
         id="rect1142-4-8-0"
         style="opacity:0.95999995;fill:none;fill-opacity:1;stroke:#000000;stroke-width:0.5;stroke-linecap:round;stroke-miterlimit:4;stroke-dasharray:none;stroke-dashoffset:0;stroke-opacity:1" />
      <rect
         y="78.578903"
         x="36.474705"
         height="2.5400002"
         width="2.5400002"
         id="rect1142-1-1"
         style="opacity:0.95999995;fill:none;fill-opacity:1;stroke:#000000;stroke-width:0.5;stroke-linecap:round;stroke-miterlimit:4;stroke-dasharray:none;stroke-dashoffset:0;stroke-opacity:1" />
      <rect
         y="78.578903"
         x="39.014706"
         height="2.5400004"
         width="2.5400004"
         id="rect1142-4-9-9"
         style="opacity:0.95999995;fill:none;fill-opacity:1;stroke:#000000;stroke-width:0.5;stroke-linecap:round;stroke-miterlimit:4;stroke-dasharray:none;stroke-dashoffset:0;stroke-opacity:1" />
    </g>
    <g
       transform="translate(-7.2096316,51.44587)"
       style="opacity:0.95999995"
       id="g1241-6">
      <rect
         y="68.4189"
         x="36.474705"
         height="2.54"
         width="2.54"
         id="rect1142-21"
         style="fill:none;fill-opacity:1;stroke:#000000;stroke-width:0.5;stroke-linecap:round;stroke-miterlimit:4;stroke-dasharray:none;stroke-dashoffset:0;stroke-opacity:1" />
      <rect
         y="68.4189"
         x="39.014706"
         height="2.5400002"
         width="2.5400002"
         id="rect1142-4-2"
         style="opacity:0.95999995;fill:none;fill-opacity:1;stroke:#000000;stroke-width:0.5;stroke-linecap:round;stroke-miterlimit:4;stroke-dasharray:none;stroke-dashoffset:0;stroke-opacity:1" />
      <rect
         y="70.9589"
         x="36.474705"
         height="2.5400002"
         width="2.5400002"
         id="rect1142-9-0"
         style="opacity:0.95999995;fill:none;fill-opacity:1;stroke:#000000;stroke-width:0.5;stroke-linecap:round;stroke-miterlimit:4;stroke-dasharray:none;stroke-dashoffset:0;stroke-opacity:1" />
      <rect
         y="70.9589"
         x="39.014706"
         height="2.5400004"
         width="2.5400004"
         id="rect1142-4-3-7"
         style="opacity:0.95999995;fill:none;fill-opacity:1;stroke:#000000;stroke-width:0.5;stroke-linecap:round;stroke-miterlimit:4;stroke-dasharray:none;stroke-dashoffset:0;stroke-opacity:1" />
      <rect
         y="73.498901"
         x="36.474705"
         height="2.5400002"
         width="2.5400002"
         id="rect1142-5-3"
         style="opacity:0.95999995;fill:none;fill-opacity:1;stroke:#000000;stroke-width:0.5;stroke-linecap:round;stroke-miterlimit:4;stroke-dasharray:none;stroke-dashoffset:0;stroke-opacity:1" />
      <rect
         y="73.498901"
         x="39.014706"
         height="2.5400004"
         width="2.5400004"
         id="rect1142-4-7-1"
         style="opacity:0.95999995;fill:none;fill-opacity:1;stroke:#000000;stroke-width:0.5;stroke-linecap:round;stroke-miterlimit:4;stroke-dasharray:none;stroke-dashoffset:0;stroke-opacity:1" />
      <rect
         y="76.038902"
         x="36.474705"
         height="2.5400002"
         width="2.5400002"
         id="rect1142-0-1"
         style="opacity:0.95999995;fill:none;fill-opacity:1;stroke:#000000;stroke-width:0.5;stroke-linecap:round;stroke-miterlimit:4;stroke-dasharray:none;stroke-dashoffset:0;stroke-opacity:1" />
      <rect
         y="76.038902"
         x="39.014706"
         height="2.5400004"
         width="2.5400004"
         id="rect1142-4-8-9"
         style="opacity:0.95999995;fill:none;fill-opacity:1;stroke:#000000;stroke-width:0.5;stroke-linecap:round;stroke-miterlimit:4;stroke-dasharray:none;stroke-dashoffset:0;stroke-opacity:1" />
      <rect
         y="78.578903"
         x="36.474705"
         height="2.5400002"
         width="2.5400002"
         id="rect1142-1-0"
         style="opacity:0.95999995;fill:none;fill-opacity:1;stroke:#000000;stroke-width:0.5;stroke-linecap:round;stroke-miterlimit:4;stroke-dasharray:none;stroke-dashoffset:0;stroke-opacity:1" />
      <rect
         y="78.578903"
         x="39.014706"
         height="2.5400004"
         width="2.5400004"
         id="rect1142-4-9-5"
         style="opacity:0.95999995;fill:none;fill-opacity:1;stroke:#000000;stroke-width:0.5;stroke-linecap:round;stroke-miterlimit:4;stroke-dasharray:none;stroke-dashoffset:0;stroke-opacity:1" />
    </g>
    <g
       transform="translate(3.6586148,24.559513)"
       style="opacity:0.95999995"
       id="g1241-67">
      <rect
         y="68.4189"
         x="36.474705"
         height="2.54"
         width="2.54"
         id="rect1142-7"
         style="fill:none;fill-opacity:1;stroke:#000000;stroke-width:0.5;stroke-linecap:round;stroke-miterlimit:4;stroke-dasharray:none;stroke-dashoffset:0;stroke-opacity:1" />
      <rect
         y="68.4189"
         x="39.014706"
         height="2.5400002"
         width="2.5400002"
         id="rect1142-4-4"
         style="opacity:0.95999995;fill:none;fill-opacity:1;stroke:#000000;stroke-width:0.5;stroke-linecap:round;stroke-miterlimit:4;stroke-dasharray:none;stroke-dashoffset:0;stroke-opacity:1" />
      <rect
         y="70.9589"
         x="36.474705"
         height="2.5400002"
         width="2.5400002"
         id="rect1142-9-06"
         style="opacity:0.95999995;fill:none;fill-opacity:1;stroke:#000000;stroke-width:0.5;stroke-linecap:round;stroke-miterlimit:4;stroke-dasharray:none;stroke-dashoffset:0;stroke-opacity:1" />
      <rect
         y="70.9589"
         x="39.014706"
         height="2.5400004"
         width="2.5400004"
         id="rect1142-4-3-47"
         style="opacity:0.95999995;fill:none;fill-opacity:1;stroke:#000000;stroke-width:0.5;stroke-linecap:round;stroke-miterlimit:4;stroke-dasharray:none;stroke-dashoffset:0;stroke-opacity:1" />
      <rect
         y="73.498901"
         x="36.474705"
         height="2.5400002"
         width="2.5400002"
         id="rect1142-5-4"
         style="opacity:0.95999995;fill:none;fill-opacity:1;stroke:#000000;stroke-width:0.5;stroke-linecap:round;stroke-miterlimit:4;stroke-dasharray:none;stroke-dashoffset:0;stroke-opacity:1" />
      <rect
         y="73.498901"
         x="39.014706"
         height="2.5400004"
         width="2.5400004"
         id="rect1142-4-7-8"
         style="opacity:0.95999995;fill:none;fill-opacity:1;stroke:#000000;stroke-width:0.5;stroke-linecap:round;stroke-miterlimit:4;stroke-dasharray:none;stroke-dashoffset:0;stroke-opacity:1" />
      <rect
         y="76.038902"
         x="36.474705"
         height="2.5400002"
         width="2.5400002"
         id="rect1142-0-5"
         style="opacity:0.95999995;fill:none;fill-opacity:1;stroke:#000000;stroke-width:0.5;stroke-linecap:round;stroke-miterlimit:4;stroke-dasharray:none;stroke-dashoffset:0;stroke-opacity:1" />
      <rect
         y="76.038902"
         x="39.014706"
         height="2.5400004"
         width="2.5400004"
         id="rect1142-4-8-8"
         style="opacity:0.95999995;fill:none;fill-opacity:1;stroke:#000000;stroke-width:0.5;stroke-linecap:round;stroke-miterlimit:4;stroke-dasharray:none;stroke-dashoffset:0;stroke-opacity:1" />
      <rect
         y="78.578903"
         x="36.474705"
         height="2.5400002"
         width="2.5400002"
         id="rect1142-1-2"
         style="opacity:0.95999995;fill:none;fill-opacity:1;stroke:#000000;stroke-width:0.5;stroke-linecap:round;stroke-miterlimit:4;stroke-dasharray:none;stroke-dashoffset:0;stroke-opacity:1" />
      <rect
         y="78.578903"
         x="39.014706"
         height="2.5400004"
         width="2.5400004"
         id="rect1142-4-9-6"
         style="opacity:0.95999995;fill:none;fill-opacity:1;stroke:#000000;stroke-width:0.5;stroke-linecap:round;stroke-miterlimit:4;stroke-dasharray:none;stroke-dashoffset:0;stroke-opacity:1" />
    </g>
    <g
       transform="translate(3.6584878,38.036065)"
       style="opacity:0.95999995"
       id="g1241-8-0">
      <rect
         y="68.4189"
         x="36.474705"
         height="2.54"
         width="2.54"
         id="rect1142-2-6"
         style="fill:none;fill-opacity:1;stroke:#000000;stroke-width:0.5;stroke-linecap:round;stroke-miterlimit:4;stroke-dasharray:none;stroke-dashoffset:0;stroke-opacity:1" />
      <rect
         y="68.4189"
         x="39.014706"
         height="2.5400002"
         width="2.5400002"
         id="rect1142-4-5-6"
         style="opacity:0.95999995;fill:none;fill-opacity:1;stroke:#000000;stroke-width:0.5;stroke-linecap:round;stroke-miterlimit:4;stroke-dasharray:none;stroke-dashoffset:0;stroke-opacity:1" />
      <rect
         y="70.9589"
         x="36.474705"
         height="2.5400002"
         width="2.5400002"
         id="rect1142-9-3-4"
         style="opacity:0.95999995;fill:none;fill-opacity:1;stroke:#000000;stroke-width:0.5;stroke-linecap:round;stroke-miterlimit:4;stroke-dasharray:none;stroke-dashoffset:0;stroke-opacity:1" />
      <rect
         y="70.9589"
         x="39.014706"
         height="2.5400004"
         width="2.5400004"
         id="rect1142-4-3-4-6"
         style="opacity:0.95999995;fill:none;fill-opacity:1;stroke:#000000;stroke-width:0.5;stroke-linecap:round;stroke-miterlimit:4;stroke-dasharray:none;stroke-dashoffset:0;stroke-opacity:1" />
      <rect
         y="73.498901"
         x="36.474705"
         height="2.5400002"
         width="2.5400002"
         id="rect1142-5-9-2"
         style="opacity:0.95999995;fill:none;fill-opacity:1;stroke:#000000;stroke-width:0.5;stroke-linecap:round;stroke-miterlimit:4;stroke-dasharray:none;stroke-dashoffset:0;stroke-opacity:1" />
      <rect
         y="73.498901"
         x="39.014706"
         height="2.5400004"
         width="2.5400004"
         id="rect1142-4-7-0-8"
         style="opacity:0.95999995;fill:none;fill-opacity:1;stroke:#000000;stroke-width:0.5;stroke-linecap:round;stroke-miterlimit:4;stroke-dasharray:none;stroke-dashoffset:0;stroke-opacity:1" />
      <rect
         y="76.038902"
         x="36.474705"
         height="2.5400002"
         width="2.5400002"
         id="rect1142-0-2-9"
         style="opacity:0.95999995;fill:none;fill-opacity:1;stroke:#000000;stroke-width:0.5;stroke-linecap:round;stroke-miterlimit:4;stroke-dasharray:none;stroke-dashoffset:0;stroke-opacity:1" />
      <rect
         y="76.038902"
         x="39.014706"
         height="2.5400004"
         width="2.5400004"
         id="rect1142-4-8-0-6"
         style="opacity:0.95999995;fill:none;fill-opacity:1;stroke:#000000;stroke-width:0.5;stroke-linecap:round;stroke-miterlimit:4;stroke-dasharray:none;stroke-dashoffset:0;stroke-opacity:1" />
      <rect
         y="78.578903"
         x="36.474705"
         height="2.5400002"
         width="2.5400002"
         id="rect1142-1-1-0"
         style="opacity:0.95999995;fill:none;fill-opacity:1;stroke:#000000;stroke-width:0.5;stroke-linecap:round;stroke-miterlimit:4;stroke-dasharray:none;stroke-dashoffset:0;stroke-opacity:1" />
      <rect
         y="78.578903"
         x="39.014706"
         height="2.5400004"
         width="2.5400004"
         id="rect1142-4-9-9-7"
         style="opacity:0.95999995;fill:none;fill-opacity:1;stroke:#000000;stroke-width:0.5;stroke-linecap:round;stroke-miterlimit:4;stroke-dasharray:none;stroke-dashoffset:0;stroke-opacity:1" />
    </g>
    <g
       transform="translate(3.6652618,51.416587)"
       style="opacity:0.95999995"
       id="g1241-6-0">
      <rect
         y="68.4189"
         x="36.474705"
         height="2.54"
         width="2.54"
         id="rect1142-21-1"
         style="fill:none;fill-opacity:1;stroke:#000000;stroke-width:0.5;stroke-linecap:round;stroke-miterlimit:4;stroke-dasharray:none;stroke-dashoffset:0;stroke-opacity:1" />
      <rect
         y="68.4189"
         x="39.014706"
         height="2.5400002"
         width="2.5400002"
         id="rect1142-4-2-0"
         style="opacity:0.95999995;fill:none;fill-opacity:1;stroke:#000000;stroke-width:0.5;stroke-linecap:round;stroke-miterlimit:4;stroke-dasharray:none;stroke-dashoffset:0;stroke-opacity:1" />
      <rect
         y="70.9589"
         x="36.474705"
         height="2.5400002"
         width="2.5400002"
         id="rect1142-9-0-1"
         style="opacity:0.95999995;fill:none;fill-opacity:1;stroke:#000000;stroke-width:0.5;stroke-linecap:round;stroke-miterlimit:4;stroke-dasharray:none;stroke-dashoffset:0;stroke-opacity:1" />
      <rect
         y="70.9589"
         x="39.014706"
         height="2.5400004"
         width="2.5400004"
         id="rect1142-4-3-7-3"
         style="opacity:0.95999995;fill:none;fill-opacity:1;stroke:#000000;stroke-width:0.5;stroke-linecap:round;stroke-miterlimit:4;stroke-dasharray:none;stroke-dashoffset:0;stroke-opacity:1" />
      <rect
         y="73.498901"
         x="36.474705"
         height="2.5400002"
         width="2.5400002"
         id="rect1142-5-3-7"
         style="opacity:0.95999995;fill:none;fill-opacity:1;stroke:#000000;stroke-width:0.5;stroke-linecap:round;stroke-miterlimit:4;stroke-dasharray:none;stroke-dashoffset:0;stroke-opacity:1" />
      <rect
         y="73.498901"
         x="39.014706"
         height="2.5400004"
         width="2.5400004"
         id="rect1142-4-7-1-7"
         style="opacity:0.95999995;fill:none;fill-opacity:1;stroke:#000000;stroke-width:0.5;stroke-linecap:round;stroke-miterlimit:4;stroke-dasharray:none;stroke-dashoffset:0;stroke-opacity:1" />
      <rect
         y="76.038902"
         x="36.474705"
         height="2.5400002"
         width="2.5400002"
         id="rect1142-0-1-2"
         style="opacity:0.95999995;fill:none;fill-opacity:1;stroke:#000000;stroke-width:0.5;stroke-linecap:round;stroke-miterlimit:4;stroke-dasharray:none;stroke-dashoffset:0;stroke-opacity:1" />
      <rect
         y="76.038902"
         x="39.014706"
         height="2.5400004"
         width="2.5400004"
         id="rect1142-4-8-9-6"
         style="opacity:0.95999995;fill:none;fill-opacity:1;stroke:#000000;stroke-width:0.5;stroke-linecap:round;stroke-miterlimit:4;stroke-dasharray:none;stroke-dashoffset:0;stroke-opacity:1" />
      <rect
         y="78.578903"
         x="36.474705"
         height="2.5400002"
         width="2.5400002"
         id="rect1142-1-0-4"
         style="opacity:0.95999995;fill:none;fill-opacity:1;stroke:#000000;stroke-width:0.5;stroke-linecap:round;stroke-miterlimit:4;stroke-dasharray:none;stroke-dashoffset:0;stroke-opacity:1" />
      <rect
         y="78.578903"
         x="39.014706"
         height="2.5400004"
         width="2.5400004"
         id="rect1142-4-9-5-5"
         style="opacity:0.95999995;fill:none;fill-opacity:1;stroke:#000000;stroke-width:0.5;stroke-linecap:round;stroke-miterlimit:4;stroke-dasharray:none;stroke-dashoffset:0;stroke-opacity:1" />
    </g>
    <g
       transform="translate(13.674984,24.559512)"
       style="opacity:0.95999995"
       id="g1241-2">
      <rect
         y="68.4189"
         x="36.474705"
         height="2.54"
         width="2.54"
         id="rect1142-02"
         style="fill:none;fill-opacity:1;stroke:#000000;stroke-width:0.5;stroke-linecap:round;stroke-miterlimit:4;stroke-dasharray:none;stroke-dashoffset:0;stroke-opacity:1" />
      <rect
         y="68.4189"
         x="39.014706"
         height="2.5400002"
         width="2.5400002"
         id="rect1142-4-90"
         style="opacity:0.95999995;fill:none;fill-opacity:1;stroke:#000000;stroke-width:0.5;stroke-linecap:round;stroke-miterlimit:4;stroke-dasharray:none;stroke-dashoffset:0;stroke-opacity:1" />
      <rect
         y="70.9589"
         x="36.474705"
         height="2.5400002"
         width="2.5400002"
         id="rect1142-9-9"
         style="opacity:0.95999995;fill:none;fill-opacity:1;stroke:#000000;stroke-width:0.5;stroke-linecap:round;stroke-miterlimit:4;stroke-dasharray:none;stroke-dashoffset:0;stroke-opacity:1" />
      <rect
         y="70.9589"
         x="39.014706"
         height="2.5400004"
         width="2.5400004"
         id="rect1142-4-3-9"
         style="opacity:0.95999995;fill:none;fill-opacity:1;stroke:#000000;stroke-width:0.5;stroke-linecap:round;stroke-miterlimit:4;stroke-dasharray:none;stroke-dashoffset:0;stroke-opacity:1" />
      <rect
         y="73.498901"
         x="36.474705"
         height="2.5400002"
         width="2.5400002"
         id="rect1142-5-45"
         style="opacity:0.95999995;fill:none;fill-opacity:1;stroke:#000000;stroke-width:0.5;stroke-linecap:round;stroke-miterlimit:4;stroke-dasharray:none;stroke-dashoffset:0;stroke-opacity:1" />
      <rect
         y="73.498901"
         x="39.014706"
         height="2.5400004"
         width="2.5400004"
         id="rect1142-4-7-10"
         style="opacity:0.95999995;fill:none;fill-opacity:1;stroke:#000000;stroke-width:0.5;stroke-linecap:round;stroke-miterlimit:4;stroke-dasharray:none;stroke-dashoffset:0;stroke-opacity:1" />
      <rect
         y="76.038902"
         x="36.474705"
         height="2.5400002"
         width="2.5400002"
         id="rect1142-0-3"
         style="opacity:0.95999995;fill:none;fill-opacity:1;stroke:#000000;stroke-width:0.5;stroke-linecap:round;stroke-miterlimit:4;stroke-dasharray:none;stroke-dashoffset:0;stroke-opacity:1" />
      <rect
         y="76.038902"
         x="39.014706"
         height="2.5400004"
         width="2.5400004"
         id="rect1142-4-8-7"
         style="opacity:0.95999995;fill:none;fill-opacity:1;stroke:#000000;stroke-width:0.5;stroke-linecap:round;stroke-miterlimit:4;stroke-dasharray:none;stroke-dashoffset:0;stroke-opacity:1" />
      <rect
         y="78.578903"
         x="36.474705"
         height="2.5400002"
         width="2.5400002"
         id="rect1142-1-8"
         style="opacity:0.95999995;fill:none;fill-opacity:1;stroke:#000000;stroke-width:0.5;stroke-linecap:round;stroke-miterlimit:4;stroke-dasharray:none;stroke-dashoffset:0;stroke-opacity:1" />
      <rect
         y="78.578903"
         x="39.014706"
         height="2.5400004"
         width="2.5400004"
         id="rect1142-4-9-8"
         style="opacity:0.95999995;fill:none;fill-opacity:1;stroke:#000000;stroke-width:0.5;stroke-linecap:round;stroke-miterlimit:4;stroke-dasharray:none;stroke-dashoffset:0;stroke-opacity:1" />
    </g>
    <g
       transform="translate(13.674857,38.036065)"
       style="opacity:0.95999995"
       id="g1241-8-6">
      <rect
         y="68.4189"
         x="36.474705"
         height="2.54"
         width="2.54"
         id="rect1142-2-0"
         style="fill:none;fill-opacity:1;stroke:#000000;stroke-width:0.5;stroke-linecap:round;stroke-miterlimit:4;stroke-dasharray:none;stroke-dashoffset:0;stroke-opacity:1" />
      <rect
         y="68.4189"
         x="39.014706"
         height="2.5400002"
         width="2.5400002"
         id="rect1142-4-5-4"
         style="opacity:0.95999995;fill:none;fill-opacity:1;stroke:#000000;stroke-width:0.5;stroke-linecap:round;stroke-miterlimit:4;stroke-dasharray:none;stroke-dashoffset:0;stroke-opacity:1" />
      <rect
         y="70.9589"
         x="36.474705"
         height="2.5400002"
         width="2.5400002"
         id="rect1142-9-3-6"
         style="opacity:0.95999995;fill:none;fill-opacity:1;stroke:#000000;stroke-width:0.5;stroke-linecap:round;stroke-miterlimit:4;stroke-dasharray:none;stroke-dashoffset:0;stroke-opacity:1" />
      <rect
         y="70.9589"
         x="39.014706"
         height="2.5400004"
         width="2.5400004"
         id="rect1142-4-3-4-7"
         style="opacity:0.95999995;fill:none;fill-opacity:1;stroke:#000000;stroke-width:0.5;stroke-linecap:round;stroke-miterlimit:4;stroke-dasharray:none;stroke-dashoffset:0;stroke-opacity:1" />
      <rect
         y="73.498901"
         x="36.474705"
         height="2.5400002"
         width="2.5400002"
         id="rect1142-5-9-6"
         style="opacity:0.95999995;fill:none;fill-opacity:1;stroke:#000000;stroke-width:0.5;stroke-linecap:round;stroke-miterlimit:4;stroke-dasharray:none;stroke-dashoffset:0;stroke-opacity:1" />
      <rect
         y="73.498901"
         x="39.014706"
         height="2.5400004"
         width="2.5400004"
         id="rect1142-4-7-0-0"
         style="opacity:0.95999995;fill:none;fill-opacity:1;stroke:#000000;stroke-width:0.5;stroke-linecap:round;stroke-miterlimit:4;stroke-dasharray:none;stroke-dashoffset:0;stroke-opacity:1" />
      <rect
         y="76.038902"
         x="36.474705"
         height="2.5400002"
         width="2.5400002"
         id="rect1142-0-2-97"
         style="opacity:0.95999995;fill:none;fill-opacity:1;stroke:#000000;stroke-width:0.5;stroke-linecap:round;stroke-miterlimit:4;stroke-dasharray:none;stroke-dashoffset:0;stroke-opacity:1" />
      <rect
         y="76.038902"
         x="39.014706"
         height="2.5400004"
         width="2.5400004"
         id="rect1142-4-8-0-5"
         style="opacity:0.95999995;fill:none;fill-opacity:1;stroke:#000000;stroke-width:0.5;stroke-linecap:round;stroke-miterlimit:4;stroke-dasharray:none;stroke-dashoffset:0;stroke-opacity:1" />
      <rect
         y="78.578903"
         x="36.474705"
         height="2.5400002"
         width="2.5400002"
         id="rect1142-1-1-9"
         style="opacity:0.95999995;fill:none;fill-opacity:1;stroke:#000000;stroke-width:0.5;stroke-linecap:round;stroke-miterlimit:4;stroke-dasharray:none;stroke-dashoffset:0;stroke-opacity:1" />
      <rect
         y="78.578903"
         x="39.014706"
         height="2.5400004"
         width="2.5400004"
         id="rect1142-4-9-9-78"
         style="opacity:0.95999995;fill:none;fill-opacity:1;stroke:#000000;stroke-width:0.5;stroke-linecap:round;stroke-miterlimit:4;stroke-dasharray:none;stroke-dashoffset:0;stroke-opacity:1" />
    </g>
    <g
       transform="translate(13.681631,51.416587)"
       style="opacity:0.95999995"
       id="g1241-6-5">
      <rect
         y="68.4189"
         x="36.474705"
         height="2.54"
         width="2.54"
         id="rect1142-21-3"
         style="fill:none;fill-opacity:1;stroke:#000000;stroke-width:0.5;stroke-linecap:round;stroke-miterlimit:4;stroke-dasharray:none;stroke-dashoffset:0;stroke-opacity:1" />
      <rect
         y="68.4189"
         x="39.014706"
         height="2.5400002"
         width="2.5400002"
         id="rect1142-4-2-3"
         style="opacity:0.95999995;fill:none;fill-opacity:1;stroke:#000000;stroke-width:0.5;stroke-linecap:round;stroke-miterlimit:4;stroke-dasharray:none;stroke-dashoffset:0;stroke-opacity:1" />
      <rect
         y="70.9589"
         x="36.474705"
         height="2.5400002"
         width="2.5400002"
         id="rect1142-9-0-8"
         style="opacity:0.95999995;fill:none;fill-opacity:1;stroke:#000000;stroke-width:0.5;stroke-linecap:round;stroke-miterlimit:4;stroke-dasharray:none;stroke-dashoffset:0;stroke-opacity:1" />
      <rect
         y="70.9589"
         x="39.014706"
         height="2.5400004"
         width="2.5400004"
         id="rect1142-4-3-7-37"
         style="opacity:0.95999995;fill:none;fill-opacity:1;stroke:#000000;stroke-width:0.5;stroke-linecap:round;stroke-miterlimit:4;stroke-dasharray:none;stroke-dashoffset:0;stroke-opacity:1" />
      <rect
         y="73.498901"
         x="36.474705"
         height="2.5400002"
         width="2.5400002"
         id="rect1142-5-3-9"
         style="opacity:0.95999995;fill:none;fill-opacity:1;stroke:#000000;stroke-width:0.5;stroke-linecap:round;stroke-miterlimit:4;stroke-dasharray:none;stroke-dashoffset:0;stroke-opacity:1" />
      <rect
         y="73.498901"
         x="39.014706"
         height="2.5400004"
         width="2.5400004"
         id="rect1142-4-7-1-3"
         style="opacity:0.95999995;fill:none;fill-opacity:1;stroke:#000000;stroke-width:0.5;stroke-linecap:round;stroke-miterlimit:4;stroke-dasharray:none;stroke-dashoffset:0;stroke-opacity:1" />
      <rect
         y="76.038902"
         x="36.474705"
         height="2.5400002"
         width="2.5400002"
         id="rect1142-0-1-7"
         style="opacity:0.95999995;fill:none;fill-opacity:1;stroke:#000000;stroke-width:0.5;stroke-linecap:round;stroke-miterlimit:4;stroke-dasharray:none;stroke-dashoffset:0;stroke-opacity:1" />
      <rect
         y="76.038902"
         x="39.014706"
         height="2.5400004"
         width="2.5400004"
         id="rect1142-4-8-9-8"
         style="opacity:0.95999995;fill:none;fill-opacity:1;stroke:#000000;stroke-width:0.5;stroke-linecap:round;stroke-miterlimit:4;stroke-dasharray:none;stroke-dashoffset:0;stroke-opacity:1" />
      <rect
         y="78.578903"
         x="36.474705"
         height="2.5400002"
         width="2.5400002"
         id="rect1142-1-0-7"
         style="opacity:0.95999995;fill:none;fill-opacity:1;stroke:#000000;stroke-width:0.5;stroke-linecap:round;stroke-miterlimit:4;stroke-dasharray:none;stroke-dashoffset:0;stroke-opacity:1" />
      <rect
         y="78.578903"
         x="39.014706"
         height="2.5400004"
         width="2.5400004"
         id="rect1142-4-9-5-4"
         style="opacity:0.95999995;fill:none;fill-opacity:1;stroke:#000000;stroke-width:0.5;stroke-linecap:round;stroke-miterlimit:4;stroke-dasharray:none;stroke-dashoffset:0;stroke-opacity:1" />
    </g>
    <rect
       style="opacity:0.95999995;fill:none;fill-opacity:1;stroke:#000000;stroke-width:0.5;stroke-linecap:round;stroke-miterlimit:4;stroke-dasharray:none;stroke-dashoffset:0;stroke-opacity:1"
       id="rect1142-97-1"
       width="2.5400004"
       height="2.5400004"
       x="29.535059"
       y="78.77166" />
    <rect
       style="opacity:0.95999995;fill:none;fill-opacity:1;stroke:#000000;stroke-width:0.5;stroke-linecap:round;stroke-miterlimit:4;stroke-dasharray:none;stroke-dashoffset:0;stroke-opacity:1"
       id="rect1142-97-1-9"
       width="2.5400004"
       height="2.5400004"
       x="29.535059"
       y="81.311661" />
    <rect
       style="opacity:0.95999995;fill:none;fill-opacity:1;stroke:#000000;stroke-width:0.5;stroke-linecap:round;stroke-miterlimit:4;stroke-dasharray:none;stroke-dashoffset:0;stroke-opacity:1"
       id="rect1142-97-1-0"
       width="2.5400004"
       height="2.5400004"
       x="29.535059"
       y="83.851662" />
    <text
       xml:space="preserve"
       style="font-style:normal;font-variant:normal;font-weight:normal;font-stretch:normal;font-size:3.52777767px;line-height:1.25;font-family:sans-serif;-inkscape-font-specification:'sans-serif, Normal';font-variant-ligatures:normal;font-variant-caps:normal;font-variant-numeric:normal;font-feature-settings:normal;text-align:start;letter-spacing:0px;word-spacing:0px;writing-mode:lr-tb;text-anchor:start;fill:#000000;fill-opacity:1;stroke:none;stroke-width:0.26458332"
       x="38.364582"
       y="90.341522"
       id="text1533"><tspan
         sodipodi:role="line"
         id="tspan1531"
         x="38.364582"
         y="90.341522"
         style="font-style:normal;font-variant:normal;font-weight:normal;font-stretch:normal;font-size:3.52777767px;font-family:sans-serif;-inkscape-font-specification:'sans-serif, Normal';font-variant-ligatures:normal;font-variant-caps:normal;font-variant-numeric:normal;font-feature-settings:normal;text-align:start;writing-mode:lr-tb;text-anchor:start;stroke-width:0.26458332">AMC</tspan></text>
    <text
       xml:space="preserve"
       style="font-style:normal;font-variant:normal;font-weight:normal;font-stretch:normal;font-size:2.82222223px;line-height:1.25;font-family:sans-serif;-inkscape-font-specification:'sans-serif, Normal';font-variant-ligatures:normal;font-variant-caps:normal;font-variant-numeric:normal;font-feature-settings:normal;text-align:start;letter-spacing:0px;word-spacing:0px;writing-mode:lr-tb;text-anchor:start;opacity:0.95999995;fill:#000000;fill-opacity:1;stroke:none;stroke-width:0.26458332"
       x="-86.96611"
       y="35.125404"
       id="text1533-9"
       transform="rotate(-90)"><tspan
         sodipodi:role="line"
         id="tspan1531-8"
         x="-86.96611"
         y="35.125404"
         style="font-style:normal;font-variant:normal;font-weight:normal;font-stretch:normal;font-size:2.82222223px;font-family:sans-serif;-inkscape-font-specification:'sans-serif, Normal';font-variant-ligatures:normal;font-variant-caps:normal;font-variant-numeric:normal;font-feature-settings:normal;text-align:start;writing-mode:lr-tb;text-anchor:start;stroke-width:0.26458332">IPMB-L</tspan></text>
    <rect
       style="opacity:0.95999995;fill:none;fill-opacity:1;stroke:#000000;stroke-width:0.5;stroke-linecap:round;stroke-miterlimit:4;stroke-dasharray:none;stroke-dashoffset:0;stroke-opacity:1"
       id="rect1142-97-1-5"
       width="2.5400004"
       height="2.5400004"
       x="29.440565"
       y="69.380844" />
    <rect
       style="opacity:0.95999995;fill:none;fill-opacity:1;stroke:#000000;stroke-width:0.5;stroke-linecap:round;stroke-miterlimit:4;stroke-dasharray:none;stroke-dashoffset:0;stroke-opacity:1"
       id="rect1142-97-1-9-8"
       width="2.5400004"
       height="2.5400004"
       x="29.440565"
       y="71.920845" />
    <rect
       style="opacity:0.95999995;fill:none;fill-opacity:1;stroke:#000000;stroke-width:0.5;stroke-linecap:round;stroke-miterlimit:4;stroke-dasharray:none;stroke-dashoffset:0;stroke-opacity:1"
       id="rect1142-97-1-5-3"
       width="2.5400004"
       height="2.5400004"
       x="29.440565"
       y="61.760838" />
    <rect
       style="opacity:0.95999995;fill:none;fill-opacity:1;stroke:#000000;stroke-width:0.5;stroke-linecap:round;stroke-miterlimit:4;stroke-dasharray:none;stroke-dashoffset:0;stroke-opacity:1"
       id="rect1142-97-1-9-8-7"
       width="2.5400004"
       height="2.5400004"
       x="29.440565"
       y="64.300842" />
    <rect
       style="opacity:0.95999995;fill:none;fill-opacity:1;stroke:#000000;stroke-width:0.5;stroke-linecap:round;stroke-miterlimit:4;stroke-dasharray:none;stroke-dashoffset:0;stroke-opacity:1"
       id="rect1142-97-1-0-4-1"
       width="2.5400004"
       height="2.5400004"
       x="29.440565"
       y="66.840843" />
    <text
       xml:space="preserve"
       style="font-style:normal;font-variant:normal;font-weight:normal;font-stretch:normal;font-size:2.82222223px;line-height:1.25;font-family:sans-serif;-inkscape-font-specification:'sans-serif, Normal';font-variant-ligatures:normal;font-variant-caps:normal;font-variant-numeric:normal;font-feature-settings:normal;text-align:start;letter-spacing:0px;word-spacing:0px;writing-mode:lr-tb;text-anchor:start;opacity:0.95999995;fill:#000000;fill-opacity:1;stroke:none;stroke-width:0.26458332"
       x="-74.41111"
       y="34.897953"
       id="text1533-9-3"
       transform="rotate(-90)"><tspan
         sodipodi:role="line"
         id="tspan1531-8-8"
         x="-74.41111"
         y="34.897953"
         style="font-style:normal;font-variant:normal;font-weight:normal;font-stretch:normal;font-size:2.82222223px;font-family:sans-serif;-inkscape-font-specification:'sans-serif, Normal';font-variant-ligatures:normal;font-variant-caps:normal;font-variant-numeric:normal;font-feature-settings:normal;text-align:start;writing-mode:lr-tb;text-anchor:start;stroke-width:0.26458332">IPMB-A/B</tspan></text>
    <g
       id="g1676">
      <g
         id="g1670">
        <rect
           style="opacity:0.95999995;fill:none;fill-opacity:1;stroke:#000000;stroke-width:0.44254288;stroke-linecap:round;stroke-miterlimit:4;stroke-dasharray:none;stroke-dashoffset:0;stroke-opacity:1"
           id="rect815-8-6-8"
           width="7"
           height="5"
           x="50.518288"
           y="-125.94151"
           ry="0"
           transform="rotate(90)" />
      </g>
      <text
         transform="rotate(-90)"
         id="text1533-9-0"
         y="124.50723"
         x="-57.06144"
         style="font-style:normal;font-variant:normal;font-weight:normal;font-stretch:normal;font-size:2.82222223px;line-height:1.25;font-family:sans-serif;-inkscape-font-specification:'sans-serif, Normal';font-variant-ligatures:normal;font-variant-caps:normal;font-variant-numeric:normal;font-feature-settings:normal;text-align:start;letter-spacing:0px;word-spacing:0px;writing-mode:lr-tb;text-anchor:start;opacity:0.95999995;fill:#000000;fill-opacity:1;stroke:none;stroke-width:0.26458332"
         xml:space="preserve"><tspan
           style="font-style:normal;font-variant:normal;font-weight:normal;font-stretch:normal;font-size:2.82222223px;font-family:sans-serif;-inkscape-font-specification:'sans-serif, Normal';font-variant-ligatures:normal;font-variant-caps:normal;font-variant-numeric:normal;font-feature-settings:normal;text-align:start;writing-mode:lr-tb;text-anchor:start;stroke-width:0.26458332"
           y="124.50723"
           x="-57.06144"
           id="tspan1531-8-9"
           sodipodi:role="line">USB</tspan></text>
    </g>
    <g
       id="g1667">
      <rect
         transform="rotate(90)"
         ry="0"
         y="-126.1305"
         x="60.731087"
         height="22"
         width="16"
         id="rect815-8-6"
         style="opacity:0.95999995;fill:none;fill-opacity:1;stroke:#000000;stroke-width:0.44254288;stroke-linecap:round;stroke-miterlimit:4;stroke-dasharray:none;stroke-dashoffset:0;stroke-opacity:1" />
      <text
         id="text1533-7"
         y="69.902344"
         x="111.58212"
         style="font-style:normal;font-variant:normal;font-weight:normal;font-stretch:normal;font-size:3.52777767px;line-height:1.25;font-family:sans-serif;-inkscape-font-specification:'sans-serif, Normal';font-variant-ligatures:normal;font-variant-caps:normal;font-variant-numeric:normal;font-feature-settings:normal;text-align:start;letter-spacing:0px;word-spacing:0px;writing-mode:lr-tb;text-anchor:start;opacity:0.95999995;fill:#000000;fill-opacity:1;stroke:none;stroke-width:0.26458332"
         xml:space="preserve"><tspan
           style="font-style:normal;font-variant:normal;font-weight:normal;font-stretch:normal;font-size:3.52777767px;font-family:sans-serif;-inkscape-font-specification:'sans-serif, Normal';font-variant-ligatures:normal;font-variant-caps:normal;font-variant-numeric:normal;font-feature-settings:normal;text-align:start;writing-mode:lr-tb;text-anchor:start;stroke-width:0.26458332"
           y="69.902344"
           x="111.58212"
           id="tspan1531-9"
           sodipodi:role="line">ETH</tspan></text>
    </g>
    <rect
       style="opacity:0.95999995;fill:none;fill-opacity:1;stroke:#000000;stroke-width:0.5;stroke-linecap:round;stroke-miterlimit:4;stroke-dasharray:none;stroke-dashoffset:0;stroke-opacity:1"
       id="rect1142-97-1-5-9"
       width="2.5400004"
       height="2.5400004"
       x="50.087513"
       y="70.91732" />
    <rect
       style="opacity:0.95999995;fill:none;fill-opacity:1;stroke:#000000;stroke-width:0.5;stroke-linecap:round;stroke-miterlimit:4;stroke-dasharray:none;stroke-dashoffset:0;stroke-opacity:1"
       id="rect1142-97-1-9-8-3"
       width="2.5400004"
       height="2.5400004"
       x="50.087513"
       y="73.457321" />
    <rect
       style="opacity:0.95999995;fill:none;fill-opacity:1;stroke:#000000;stroke-width:0.5;stroke-linecap:round;stroke-miterlimit:4;stroke-dasharray:none;stroke-dashoffset:0;stroke-opacity:1"
       id="rect1142-97-1-5-3-2"
       width="2.5400004"
       height="2.5400004"
       x="50.087513"
       y="63.297318" />
    <rect
       style="opacity:0.95999995;fill:none;fill-opacity:1;stroke:#000000;stroke-width:0.5;stroke-linecap:round;stroke-miterlimit:4;stroke-dasharray:none;stroke-dashoffset:0;stroke-opacity:1"
       id="rect1142-97-1-9-8-7-4"
       width="2.5400004"
       height="2.5400004"
       x="50.087513"
       y="65.837318" />
    <rect
       style="opacity:0.95999995;fill:none;fill-opacity:1;stroke:#000000;stroke-width:0.5;stroke-linecap:round;stroke-miterlimit:4;stroke-dasharray:none;stroke-dashoffset:0;stroke-opacity:1"
       id="rect1142-97-1-0-4-1-3"
       width="2.5400004"
       height="2.5400004"
       x="50.087513"
       y="68.377319" />
    <rect
       style="opacity:0.95999995;fill:none;fill-opacity:1;stroke:#000000;stroke-width:0.5;stroke-linecap:round;stroke-miterlimit:4;stroke-dasharray:none;stroke-dashoffset:0;stroke-opacity:1"
       id="rect1142-97-1-7"
       width="2.5400004"
       height="2.5400004"
       x="50.087517"
       y="75.997322" />
    <rect
       style="opacity:0.95999995;fill:none;fill-opacity:1;stroke:#000000;stroke-width:0.5;stroke-linecap:round;stroke-miterlimit:4;stroke-dasharray:none;stroke-dashoffset:0;stroke-opacity:1"
       id="rect1142-97-1-9-1"
       width="2.5400004"
       height="2.5400004"
       x="50.087517"
       y="78.537323" />
    <rect
       style="opacity:0.95999995;fill:none;fill-opacity:1;stroke:#000000;stroke-width:0.5;stroke-linecap:round;stroke-miterlimit:4;stroke-dasharray:none;stroke-dashoffset:0;stroke-opacity:1"
       id="rect1142-97-1-0-2"
       width="2.5400004"
       height="2.5400004"
       x="50.087517"
       y="81.077324" />
    <rect
       style="opacity:0.95999995;fill:none;fill-opacity:1;stroke:#000000;stroke-width:0.5;stroke-linecap:round;stroke-miterlimit:4;stroke-dasharray:none;stroke-dashoffset:0;stroke-opacity:1"
       id="rect1142-97-1-5-9-2"
       width="2.5400004"
       height="2.5400004"
       x="52.627514"
       y="70.91732" />
    <rect
       style="opacity:0.95999995;fill:none;fill-opacity:1;stroke:#000000;stroke-width:0.5;stroke-linecap:round;stroke-miterlimit:4;stroke-dasharray:none;stroke-dashoffset:0;stroke-opacity:1"
       id="rect1142-97-1-9-8-3-0"
       width="2.5400004"
       height="2.5400004"
       x="52.627514"
       y="73.457321" />
    <rect
       style="opacity:0.95999995;fill:none;fill-opacity:1;stroke:#000000;stroke-width:0.5;stroke-linecap:round;stroke-miterlimit:4;stroke-dasharray:none;stroke-dashoffset:0;stroke-opacity:1"
       id="rect1142-97-1-5-3-2-2"
       width="2.5400004"
       height="2.5400004"
       x="52.627514"
       y="63.297318" />
    <rect
       style="opacity:0.95999995;fill:none;fill-opacity:1;stroke:#000000;stroke-width:0.5;stroke-linecap:round;stroke-miterlimit:4;stroke-dasharray:none;stroke-dashoffset:0;stroke-opacity:1"
       id="rect1142-97-1-9-8-7-4-1"
       width="2.5400004"
       height="2.5400004"
       x="52.627514"
       y="65.837318" />
    <rect
       style="opacity:0.95999995;fill:none;fill-opacity:1;stroke:#000000;stroke-width:0.5;stroke-linecap:round;stroke-miterlimit:4;stroke-dasharray:none;stroke-dashoffset:0;stroke-opacity:1"
       id="rect1142-97-1-0-4-1-3-7"
       width="2.5400004"
       height="2.5400004"
       x="52.627514"
       y="68.377319" />
    <rect
       style="opacity:0.95999995;fill:none;fill-opacity:1;stroke:#000000;stroke-width:0.5;stroke-linecap:round;stroke-miterlimit:4;stroke-dasharray:none;stroke-dashoffset:0;stroke-opacity:1"
       id="rect1142-97-1-7-5"
       width="2.5400004"
       height="2.5400004"
       x="52.627518"
       y="75.997322" />
    <rect
       style="opacity:0.95999995;fill:none;fill-opacity:1;stroke:#000000;stroke-width:0.5;stroke-linecap:round;stroke-miterlimit:4;stroke-dasharray:none;stroke-dashoffset:0;stroke-opacity:1"
       id="rect1142-97-1-9-1-1"
       width="2.5400004"
       height="2.5400004"
       x="52.627518"
       y="78.537323" />
    <rect
       style="opacity:0.95999995;fill:none;fill-opacity:1;stroke:#000000;stroke-width:0.5;stroke-linecap:round;stroke-miterlimit:4;stroke-dasharray:none;stroke-dashoffset:0;stroke-opacity:1"
       id="rect1142-97-1-0-2-7"
       width="2.5400004"
       height="2.5400004"
       x="52.627518"
       y="81.077324" />
    <text
       xml:space="preserve"
       style="font-style:normal;font-variant:normal;font-weight:normal;font-stretch:normal;font-size:2.82222223px;line-height:1.25;font-family:sans-serif;-inkscape-font-specification:'sans-serif, Normal';font-variant-ligatures:normal;font-variant-caps:normal;font-variant-numeric:normal;font-feature-settings:normal;text-align:start;letter-spacing:0px;word-spacing:0px;writing-mode:lr-tb;text-anchor:start;opacity:0.95999995;fill:#000000;fill-opacity:1;stroke:none;stroke-width:0.26458332"
       x="50.361263"
       y="62.143532"
       id="text1533-4"><tspan
         sodipodi:role="line"
         id="tspan1531-1"
         x="50.361263"
         y="62.143532"
         style="font-style:normal;font-variant:normal;font-weight:normal;font-stretch:normal;font-size:2.82222223px;font-family:sans-serif;-inkscape-font-specification:'sans-serif, Normal';font-variant-ligatures:normal;font-variant-caps:normal;font-variant-numeric:normal;font-feature-settings:normal;text-align:start;writing-mode:lr-tb;text-anchor:start;stroke-width:0.26458332">HA</tspan></text>
    <rect
       style="opacity:0.95999995;fill:none;fill-opacity:1;stroke:#000000;stroke-width:0.5;stroke-linecap:round;stroke-miterlimit:4;stroke-dasharray:none;stroke-dashoffset:0;stroke-opacity:1"
       id="rect1142-97-1-5-9-7"
       width="2.5400004"
       height="2.5400004"
       x="61.270596"
       y="94.275131" />
    <rect
       style="opacity:0.95999995;fill:none;fill-opacity:1;stroke:#000000;stroke-width:0.5;stroke-linecap:round;stroke-miterlimit:4;stroke-dasharray:none;stroke-dashoffset:0;stroke-opacity:1"
       id="rect1142-97-1-9-8-3-1"
       width="2.5400004"
       height="2.5400004"
       x="61.270596"
       y="96.815132" />
    <rect
       style="opacity:0.95999995;fill:none;fill-opacity:1;stroke:#000000;stroke-width:0.5;stroke-linecap:round;stroke-miterlimit:4;stroke-dasharray:none;stroke-dashoffset:0;stroke-opacity:1"
       id="rect1142-97-1-5-3-2-1"
       width="2.5400004"
       height="2.5400004"
       x="61.270596"
       y="86.655128" />
    <rect
       style="opacity:0.95999995;fill:none;fill-opacity:1;stroke:#000000;stroke-width:0.5;stroke-linecap:round;stroke-miterlimit:4;stroke-dasharray:none;stroke-dashoffset:0;stroke-opacity:1"
       id="rect1142-97-1-9-8-7-4-17"
       width="2.5400004"
       height="2.5400004"
       x="61.270596"
       y="89.195129" />
    <rect
       style="opacity:0.95999995;fill:none;fill-opacity:1;stroke:#000000;stroke-width:0.5;stroke-linecap:round;stroke-miterlimit:4;stroke-dasharray:none;stroke-dashoffset:0;stroke-opacity:1"
       id="rect1142-97-1-0-4-1-3-0"
       width="2.5400004"
       height="2.5400004"
       x="61.270596"
       y="91.73513" />
    <rect
       style="opacity:0.95999995;fill:none;fill-opacity:1;stroke:#000000;stroke-width:0.5;stroke-linecap:round;stroke-miterlimit:4;stroke-dasharray:none;stroke-dashoffset:0;stroke-opacity:1"
       id="rect1142-97-1-7-4"
       width="2.5400004"
       height="2.5400004"
       x="61.270596"
       y="99.355133" />
    <rect
       style="opacity:0.95999995;fill:none;fill-opacity:1;stroke:#000000;stroke-width:0.5;stroke-linecap:round;stroke-miterlimit:4;stroke-dasharray:none;stroke-dashoffset:0;stroke-opacity:1"
       id="rect1142-97-1-9-1-0"
       width="2.5400004"
       height="2.5400004"
       x="61.270596"
       y="101.89513" />
    <rect
       style="opacity:0.95999995;fill:none;fill-opacity:1;stroke:#000000;stroke-width:0.5;stroke-linecap:round;stroke-miterlimit:4;stroke-dasharray:none;stroke-dashoffset:0;stroke-opacity:1"
       id="rect1142-97-1-0-2-8"
       width="2.5400004"
       height="2.5400004"
       x="61.270596"
       y="104.43512" />
    <rect
       style="opacity:0.95999995;fill:none;fill-opacity:1;stroke:#000000;stroke-width:0.5;stroke-linecap:round;stroke-miterlimit:4;stroke-dasharray:none;stroke-dashoffset:0;stroke-opacity:1"
       id="rect1142-97-1-5-9-2-5"
       width="2.5400004"
       height="2.5400004"
       x="63.810596"
       y="94.275131" />
    <rect
       style="opacity:0.95999995;fill:none;fill-opacity:1;stroke:#000000;stroke-width:0.5;stroke-linecap:round;stroke-miterlimit:4;stroke-dasharray:none;stroke-dashoffset:0;stroke-opacity:1"
       id="rect1142-97-1-9-8-3-0-1"
       width="2.5400004"
       height="2.5400004"
       x="63.810596"
       y="96.815132" />
    <rect
       style="opacity:0.95999995;fill:none;fill-opacity:1;stroke:#000000;stroke-width:0.5;stroke-linecap:round;stroke-miterlimit:4;stroke-dasharray:none;stroke-dashoffset:0;stroke-opacity:1"
       id="rect1142-97-1-5-3-2-2-6"
       width="2.5400004"
       height="2.5400004"
       x="63.810596"
       y="86.655128" />
    <rect
       style="opacity:0.95999995;fill:none;fill-opacity:1;stroke:#000000;stroke-width:0.5;stroke-linecap:round;stroke-miterlimit:4;stroke-dasharray:none;stroke-dashoffset:0;stroke-opacity:1"
       id="rect1142-97-1-9-8-7-4-1-6"
       width="2.5400004"
       height="2.5400004"
       x="63.810596"
       y="89.195129" />
    <rect
       style="opacity:0.95999995;fill:none;fill-opacity:1;stroke:#000000;stroke-width:0.5;stroke-linecap:round;stroke-miterlimit:4;stroke-dasharray:none;stroke-dashoffset:0;stroke-opacity:1"
       id="rect1142-97-1-0-4-1-3-7-2"
       width="2.5400004"
       height="2.5400004"
       x="63.810596"
       y="91.73513" />
    <rect
       style="opacity:0.95999995;fill:none;fill-opacity:1;stroke:#000000;stroke-width:0.5;stroke-linecap:round;stroke-miterlimit:4;stroke-dasharray:none;stroke-dashoffset:0;stroke-opacity:1"
       id="rect1142-97-1-7-5-1"
       width="2.5400004"
       height="2.5400004"
       x="63.810596"
       y="99.355133" />
    <rect
       style="opacity:0.95999995;fill:none;fill-opacity:1;stroke:#000000;stroke-width:0.5;stroke-linecap:round;stroke-miterlimit:4;stroke-dasharray:none;stroke-dashoffset:0;stroke-opacity:1"
       id="rect1142-97-1-9-1-1-9"
       width="2.5400004"
       height="2.5400004"
       x="63.810596"
       y="101.89513" />
    <rect
       style="opacity:0.95999995;fill:none;fill-opacity:1;stroke:#000000;stroke-width:0.5;stroke-linecap:round;stroke-miterlimit:4;stroke-dasharray:none;stroke-dashoffset:0;stroke-opacity:1"
       id="rect1142-97-1-0-2-7-6"
       width="2.5400004"
       height="2.5400004"
       x="63.810596"
       y="104.43512" />
    <rect
       style="opacity:0.95999995;fill:none;fill-opacity:1;stroke:#000000;stroke-width:0.5;stroke-linecap:round;stroke-miterlimit:4;stroke-dasharray:none;stroke-dashoffset:0;stroke-opacity:1"
       id="rect1142-97-1-5-9-7-4"
       width="2.5400004"
       height="2.5400004"
       x="61.270596"
       y="114.59512" />
    <rect
       style="opacity:0.95999995;fill:none;fill-opacity:1;stroke:#000000;stroke-width:0.5;stroke-linecap:round;stroke-miterlimit:4;stroke-dasharray:none;stroke-dashoffset:0;stroke-opacity:1"
       id="rect1142-97-1-9-8-3-1-8"
       width="2.5400004"
       height="2.5400004"
       x="61.270596"
       y="117.13512" />
    <rect
       style="opacity:0.95999995;fill:none;fill-opacity:1;stroke:#000000;stroke-width:0.5;stroke-linecap:round;stroke-miterlimit:4;stroke-dasharray:none;stroke-dashoffset:0;stroke-opacity:1"
       id="rect1142-97-1-5-3-2-1-0"
       width="2.5400004"
       height="2.5400004"
       x="61.270596"
       y="106.97512" />
    <rect
       style="opacity:0.95999995;fill:none;fill-opacity:1;stroke:#000000;stroke-width:0.5;stroke-linecap:round;stroke-miterlimit:4;stroke-dasharray:none;stroke-dashoffset:0;stroke-opacity:1"
       id="rect1142-97-1-9-8-7-4-17-8"
       width="2.5400004"
       height="2.5400004"
       x="61.270596"
       y="109.51512" />
    <rect
       style="opacity:0.95999995;fill:none;fill-opacity:1;stroke:#000000;stroke-width:0.5;stroke-linecap:round;stroke-miterlimit:4;stroke-dasharray:none;stroke-dashoffset:0;stroke-opacity:1"
       id="rect1142-97-1-0-4-1-3-0-1"
       width="2.5400004"
       height="2.5400004"
       x="61.270596"
       y="112.05512" />
    <rect
       style="opacity:0.95999995;fill:none;fill-opacity:1;stroke:#000000;stroke-width:0.5;stroke-linecap:round;stroke-miterlimit:4;stroke-dasharray:none;stroke-dashoffset:0;stroke-opacity:1"
       id="rect1142-97-1-5-9-2-5-0"
       width="2.5400004"
       height="2.5400004"
       x="63.810596"
       y="114.59512" />
    <rect
       style="opacity:0.95999995;fill:none;fill-opacity:1;stroke:#000000;stroke-width:0.5;stroke-linecap:round;stroke-miterlimit:4;stroke-dasharray:none;stroke-dashoffset:0;stroke-opacity:1"
       id="rect1142-97-1-9-8-3-0-1-2"
       width="2.5400004"
       height="2.5400004"
       x="63.810596"
       y="117.13512" />
    <rect
       style="opacity:0.95999995;fill:none;fill-opacity:1;stroke:#000000;stroke-width:0.5;stroke-linecap:round;stroke-miterlimit:4;stroke-dasharray:none;stroke-dashoffset:0;stroke-opacity:1"
       id="rect1142-97-1-5-3-2-2-6-2"
       width="2.5400004"
       height="2.5400004"
       x="63.810596"
       y="106.97512" />
    <rect
       style="opacity:0.95999995;fill:none;fill-opacity:1;stroke:#000000;stroke-width:0.5;stroke-linecap:round;stroke-miterlimit:4;stroke-dasharray:none;stroke-dashoffset:0;stroke-opacity:1"
       id="rect1142-97-1-9-8-7-4-1-6-9"
       width="2.5400004"
       height="2.5400004"
       x="63.810596"
       y="109.51512" />
    <rect
       style="opacity:0.95999995;fill:none;fill-opacity:1;stroke:#000000;stroke-width:0.5;stroke-linecap:round;stroke-miterlimit:4;stroke-dasharray:none;stroke-dashoffset:0;stroke-opacity:1"
       id="rect1142-97-1-0-4-1-3-7-2-7"
       width="2.5400004"
       height="2.5400004"
       x="63.810596"
       y="112.05512" />
    <rect
       style="opacity:0.95999995;fill:none;fill-opacity:1;stroke:#000000;stroke-width:0.5;stroke-linecap:round;stroke-miterlimit:4;stroke-dasharray:none;stroke-dashoffset:0;stroke-opacity:1"
       id="rect1142-97-1-5-9-7-4-5"
       width="2.5400004"
       height="2.5400004"
       x="61.270596"
       y="127.29514" />
    <rect
       style="opacity:0.95999995;fill:none;fill-opacity:1;stroke:#000000;stroke-width:0.5;stroke-linecap:round;stroke-miterlimit:4;stroke-dasharray:none;stroke-dashoffset:0;stroke-opacity:1"
       id="rect1142-97-1-9-8-3-1-8-6"
       width="2.5400004"
       height="2.5400004"
       x="61.270596"
       y="129.83513" />
    <rect
       style="opacity:0.95999995;fill:none;fill-opacity:1;stroke:#000000;stroke-width:0.5;stroke-linecap:round;stroke-miterlimit:4;stroke-dasharray:none;stroke-dashoffset:0;stroke-opacity:1"
       id="rect1142-97-1-5-3-2-1-0-4"
       width="2.5400004"
       height="2.5400004"
       x="61.270596"
       y="119.67513" />
    <rect
       style="opacity:0.95999995;fill:none;fill-opacity:1;stroke:#000000;stroke-width:0.5;stroke-linecap:round;stroke-miterlimit:4;stroke-dasharray:none;stroke-dashoffset:0;stroke-opacity:1"
       id="rect1142-97-1-9-8-7-4-17-8-6"
       width="2.5400004"
       height="2.5400004"
       x="61.270596"
       y="122.21513" />
    <rect
       style="opacity:0.95999995;fill:none;fill-opacity:1;stroke:#000000;stroke-width:0.5;stroke-linecap:round;stroke-miterlimit:4;stroke-dasharray:none;stroke-dashoffset:0;stroke-opacity:1"
       id="rect1142-97-1-0-4-1-3-0-1-3"
       width="2.5400004"
       height="2.5400004"
       x="61.270596"
       y="124.75512" />
    <rect
       style="opacity:0.95999995;fill:none;fill-opacity:1;stroke:#000000;stroke-width:0.5;stroke-linecap:round;stroke-miterlimit:4;stroke-dasharray:none;stroke-dashoffset:0;stroke-opacity:1"
       id="rect1142-97-1-5-9-2-5-0-7"
       width="2.5400004"
       height="2.5400004"
       x="63.810596"
       y="127.29514" />
    <rect
       style="opacity:0.95999995;fill:none;fill-opacity:1;stroke:#000000;stroke-width:0.5;stroke-linecap:round;stroke-miterlimit:4;stroke-dasharray:none;stroke-dashoffset:0;stroke-opacity:1"
       id="rect1142-97-1-9-8-3-0-1-2-9"
       width="2.5400004"
       height="2.5400004"
       x="63.810596"
       y="129.83513" />
    <rect
       style="opacity:0.95999995;fill:none;fill-opacity:1;stroke:#000000;stroke-width:0.5;stroke-linecap:round;stroke-miterlimit:4;stroke-dasharray:none;stroke-dashoffset:0;stroke-opacity:1"
       id="rect1142-97-1-5-3-2-2-6-2-7"
       width="2.5400004"
       height="2.5400004"
       x="63.810596"
       y="119.67513" />
    <rect
       style="opacity:0.95999995;fill:none;fill-opacity:1;stroke:#000000;stroke-width:0.5;stroke-linecap:round;stroke-miterlimit:4;stroke-dasharray:none;stroke-dashoffset:0;stroke-opacity:1"
       id="rect1142-97-1-9-8-7-4-1-6-9-4"
       width="2.5400004"
       height="2.5400004"
       x="63.810596"
       y="122.21513" />
    <rect
       style="opacity:0.95999995;fill:none;fill-opacity:1;stroke:#000000;stroke-width:0.5;stroke-linecap:round;stroke-miterlimit:4;stroke-dasharray:none;stroke-dashoffset:0;stroke-opacity:1"
       id="rect1142-97-1-0-4-1-3-7-2-7-9"
       width="2.5400004"
       height="2.5400004"
       x="63.810596"
       y="124.75512" />
    <text
       xml:space="preserve"
       style="font-style:normal;font-variant:normal;font-weight:normal;font-stretch:normal;font-size:3.52777767px;line-height:1.25;font-family:sans-serif;-inkscape-font-specification:'sans-serif, Normal';font-variant-ligatures:normal;font-variant-caps:normal;font-variant-numeric:normal;font-feature-settings:normal;text-align:start;letter-spacing:0px;word-spacing:0px;writing-mode:lr-tb;text-anchor:start;opacity:0.95999995;fill:#000000;fill-opacity:1;stroke:none;stroke-width:0.26458332"
       x="60.065922"
       y="85.003075"
       id="text1533-1"><tspan
         sodipodi:role="line"
         id="tspan1531-7"
         x="60.065922"
         y="85.003075"
         style="font-style:normal;font-variant:normal;font-weight:normal;font-stretch:normal;font-size:2.11666656px;font-family:sans-serif;-inkscape-font-specification:'sans-serif, Normal';font-variant-ligatures:normal;font-variant-caps:normal;font-variant-numeric:normal;font-feature-settings:normal;text-align:start;writing-mode:lr-tb;text-anchor:start;stroke-width:0.26458332">USR_IO</tspan></text>
    <rect
       style="opacity:0.95999995;fill:none;fill-opacity:1;stroke:#000000;stroke-width:0.5;stroke-linecap:round;stroke-miterlimit:4;stroke-dasharray:none;stroke-dashoffset:0;stroke-opacity:1"
       id="rect1142-97-1-5-9-0"
       width="2.5400004"
       height="2.5400004"
       x="72.488266"
       y="119.42571" />
    <rect
       style="opacity:0.95999995;fill:none;fill-opacity:1;stroke:#000000;stroke-width:0.5;stroke-linecap:round;stroke-miterlimit:4;stroke-dasharray:none;stroke-dashoffset:0;stroke-opacity:1"
       id="rect1142-97-1-9-8-3-6"
       width="2.5400004"
       height="2.5400004"
       x="72.488266"
       y="121.96571" />
    <rect
       style="opacity:0.95999995;fill:none;fill-opacity:1;stroke:#000000;stroke-width:0.5;stroke-linecap:round;stroke-miterlimit:4;stroke-dasharray:none;stroke-dashoffset:0;stroke-opacity:1"
       id="rect1142-97-1-5-3-2-0"
       width="2.5400004"
       height="2.5400004"
       x="72.488266"
       y="111.80572" />
    <rect
       style="opacity:0.95999995;fill:none;fill-opacity:1;stroke:#000000;stroke-width:0.5;stroke-linecap:round;stroke-miterlimit:4;stroke-dasharray:none;stroke-dashoffset:0;stroke-opacity:1"
       id="rect1142-97-1-9-8-7-4-8"
       width="2.5400004"
       height="2.5400004"
       x="72.488266"
       y="114.34572" />
    <rect
       style="opacity:0.95999995;fill:none;fill-opacity:1;stroke:#000000;stroke-width:0.5;stroke-linecap:round;stroke-miterlimit:4;stroke-dasharray:none;stroke-dashoffset:0;stroke-opacity:1"
       id="rect1142-97-1-0-4-1-3-5"
       width="2.5400004"
       height="2.5400004"
       x="72.488266"
       y="116.88572" />
    <rect
       style="opacity:0.95999995;fill:none;fill-opacity:1;stroke:#000000;stroke-width:0.5;stroke-linecap:round;stroke-miterlimit:4;stroke-dasharray:none;stroke-dashoffset:0;stroke-opacity:1"
       id="rect1142-97-1-7-3"
       width="2.5400004"
       height="2.5400004"
       x="72.488274"
       y="124.50573" />
    <rect
       style="opacity:0.95999995;fill:none;fill-opacity:1;stroke:#000000;stroke-width:0.5;stroke-linecap:round;stroke-miterlimit:4;stroke-dasharray:none;stroke-dashoffset:0;stroke-opacity:1"
       id="rect1142-97-1-9-1-9"
       width="2.5400004"
       height="2.5400004"
       x="72.488274"
       y="127.04572" />
    <rect
       style="opacity:0.95999995;fill:none;fill-opacity:1;stroke:#000000;stroke-width:0.5;stroke-linecap:round;stroke-miterlimit:4;stroke-dasharray:none;stroke-dashoffset:0;stroke-opacity:1"
       id="rect1142-97-1-0-2-4"
       width="2.5400004"
       height="2.5400004"
       x="72.488274"
       y="129.58572" />
    <rect
       style="opacity:0.95999995;fill:none;fill-opacity:1;stroke:#000000;stroke-width:0.5;stroke-linecap:round;stroke-miterlimit:4;stroke-dasharray:none;stroke-dashoffset:0;stroke-opacity:1"
       id="rect1142-97-1-5-9-2-1"
       width="2.5400004"
       height="2.5400004"
       x="75.028267"
       y="119.42571" />
    <rect
       style="opacity:0.95999995;fill:none;fill-opacity:1;stroke:#000000;stroke-width:0.5;stroke-linecap:round;stroke-miterlimit:4;stroke-dasharray:none;stroke-dashoffset:0;stroke-opacity:1"
       id="rect1142-97-1-9-8-3-0-5"
       width="2.5400004"
       height="2.5400004"
       x="75.028267"
       y="121.96571" />
    <rect
       style="opacity:0.95999995;fill:none;fill-opacity:1;stroke:#000000;stroke-width:0.5;stroke-linecap:round;stroke-miterlimit:4;stroke-dasharray:none;stroke-dashoffset:0;stroke-opacity:1"
       id="rect1142-97-1-5-3-2-2-4"
       width="2.5400004"
       height="2.5400004"
       x="75.028267"
       y="111.80572" />
    <rect
       style="opacity:0.95999995;fill:none;fill-opacity:1;stroke:#000000;stroke-width:0.5;stroke-linecap:round;stroke-miterlimit:4;stroke-dasharray:none;stroke-dashoffset:0;stroke-opacity:1"
       id="rect1142-97-1-9-8-7-4-1-1"
       width="2.5400004"
       height="2.5400004"
       x="75.028267"
       y="114.34572" />
    <rect
       style="opacity:0.95999995;fill:none;fill-opacity:1;stroke:#000000;stroke-width:0.5;stroke-linecap:round;stroke-miterlimit:4;stroke-dasharray:none;stroke-dashoffset:0;stroke-opacity:1"
       id="rect1142-97-1-0-4-1-3-7-5"
       width="2.5400004"
       height="2.5400004"
       x="75.028267"
       y="116.88572" />
    <rect
       style="opacity:0.95999995;fill:none;fill-opacity:1;stroke:#000000;stroke-width:0.5;stroke-linecap:round;stroke-miterlimit:4;stroke-dasharray:none;stroke-dashoffset:0;stroke-opacity:1"
       id="rect1142-97-1-7-5-5"
       width="2.5400004"
       height="2.5400004"
       x="75.028275"
       y="124.50573" />
    <rect
       style="opacity:0.95999995;fill:none;fill-opacity:1;stroke:#000000;stroke-width:0.5;stroke-linecap:round;stroke-miterlimit:4;stroke-dasharray:none;stroke-dashoffset:0;stroke-opacity:1"
       id="rect1142-97-1-9-1-1-4"
       width="2.5400004"
       height="2.5400004"
       x="75.028275"
       y="127.04572" />
    <rect
       style="opacity:0.95999995;fill:none;fill-opacity:1;stroke:#000000;stroke-width:0.5;stroke-linecap:round;stroke-miterlimit:4;stroke-dasharray:none;stroke-dashoffset:0;stroke-opacity:1"
       id="rect1142-97-1-0-2-7-9"
       width="2.5400004"
       height="2.5400004"
       x="75.028275"
       y="129.58572" />
    <text
       xml:space="preserve"
       style="font-style:normal;font-variant:normal;font-weight:normal;font-stretch:normal;font-size:2.82222223px;line-height:1.25;font-family:sans-serif;-inkscape-font-specification:'sans-serif, Normal';font-variant-ligatures:normal;font-variant-caps:normal;font-variant-numeric:normal;font-feature-settings:normal;text-align:start;letter-spacing:0px;word-spacing:0px;writing-mode:lr-tb;text-anchor:start;opacity:0.95999995;fill:#000000;fill-opacity:1;stroke:none;stroke-width:0.26458332"
       x="72.478531"
       y="110.65193"
       id="text1533-4-8"><tspan
         sodipodi:role="line"
         id="tspan1531-1-3"
         x="72.478531"
         y="110.65193"
         style="font-style:normal;font-variant:normal;font-weight:normal;font-stretch:normal;font-size:2.82222223px;font-family:sans-serif;-inkscape-font-specification:'sans-serif, Normal';font-variant-ligatures:normal;font-variant-caps:normal;font-variant-numeric:normal;font-feature-settings:normal;text-align:start;writing-mode:lr-tb;text-anchor:start;stroke-width:0.26458332">IPM</tspan></text>
    <text
       xml:space="preserve"
       style="font-style:normal;font-variant:normal;font-weight:normal;font-stretch:normal;font-size:1.76388889px;line-height:1.25;font-family:sans-serif;-inkscape-font-specification:'sans-serif, Normal';font-variant-ligatures:normal;font-variant-caps:normal;font-variant-numeric:normal;font-feature-settings:normal;text-align:start;letter-spacing:0px;word-spacing:0px;writing-mode:lr;text-anchor:start;opacity:0.95999995;fill:#000000;fill-opacity:1;stroke:none;stroke-width:0.26458332;"
       x="3.4808509"
       y="109.8707"
       id="text1533-1-8"><tspan
         sodipodi:role="line"
         x="3.4808509"
         y="109.8707"
         style="font-style:normal;font-variant:normal;font-weight:normal;font-stretch:normal;font-size:1.76388889px;font-family:sans-serif;-inkscape-font-specification:'sans-serif, Normal';font-variant-ligatures:normal;font-variant-caps:normal;font-variant-numeric:normal;font-feature-settings:normal;text-align:start;writing-mode:lr;text-anchor:start;stroke-width:0.26458332;"
         id="tspan2026">tracks come</tspan><tspan
         sodipodi:role="line"
         x="3.4808509"
         y="114.28042"
         style="font-style:normal;font-variant:normal;font-weight:normal;font-stretch:normal;font-size:1.76388889px;font-family:sans-serif;-inkscape-font-specification:'sans-serif, Normal';font-variant-ligatures:normal;font-variant-caps:normal;font-variant-numeric:normal;font-feature-settings:normal;text-align:start;writing-mode:lr;text-anchor:start;stroke-width:0.26458332;"
         id="tspan2030">vertically from DIMM</tspan></text>
    <path
       style="fill:none;stroke:#000000;stroke-width:0.26458332px;stroke-linecap:butt;stroke-linejoin:miter;stroke-opacity:1;marker-end:url(#Arrow1Mend)"
       d="m 12.294398,112.91811 24.78925,8.28536"
       id="path2032"
       inkscape:connector-curvature="0" />
    <text
       xml:space="preserve"
       style="font-style:normal;font-variant:normal;font-weight:normal;font-stretch:normal;font-size:2.82222223px;line-height:1.25;font-family:sans-serif;-inkscape-font-specification:'sans-serif, Normal';font-variant-ligatures:normal;font-variant-caps:normal;font-variant-numeric:normal;font-feature-settings:normal;text-align:start;letter-spacing:0px;word-spacing:0px;writing-mode:lr-tb;text-anchor:start;opacity:0.95999995;fill:#000000;fill-opacity:1;stroke:none;stroke-width:0.26458332"
       x="77.410797"
       y="66.896263"
       id="text1533-4-2"><tspan
         sodipodi:role="line"
         id="tspan1531-1-2"
         x="77.410797"
         y="66.896263"
         style="font-style:normal;font-variant:normal;font-weight:normal;font-stretch:normal;font-size:2.82222223px;font-family:sans-serif;-inkscape-font-specification:'sans-serif, Normal';font-variant-ligatures:normal;font-variant-caps:normal;font-variant-numeric:normal;font-feature-settings:normal;text-align:start;writing-mode:lr-tb;text-anchor:start;stroke-width:0.26458332">LEDs</tspan></text>
    <g
       transform="translate(-1.1662151,40.858944)"
       style="opacity:0.95999995"
       id="g1676-2">
      <g
         id="g2391"
         transform="translate(2.2678571,2.9293155)">
        <g
           transform="translate(-0.89769346,-0.14174108)"
           id="g1670-7">
          <rect
             transform="rotate(90)"
             ry="0"
             y="-125.94151"
             x="50.518288"
             height="13.551711"
             width="7.7559524"
             id="rect815-8-6-8-0"
             style="opacity:0.95999995;fill:none;fill-opacity:1;stroke:#000000;stroke-width:0.44254288;stroke-linecap:round;stroke-miterlimit:4;stroke-dasharray:none;stroke-dashoffset:0;stroke-opacity:1" />
        </g>
        <text
           xml:space="preserve"
           style="font-style:normal;font-variant:normal;font-weight:normal;font-stretch:normal;font-size:2.82222223px;line-height:1.25;font-family:sans-serif;-inkscape-font-specification:'sans-serif, Normal';font-variant-ligatures:normal;font-variant-caps:normal;font-variant-numeric:normal;font-feature-settings:normal;text-align:start;letter-spacing:0px;word-spacing:0px;writing-mode:lr-tb;text-anchor:start;opacity:0.95999995;fill:#000000;fill-opacity:1;stroke:none;stroke-width:0.26458332"
           x="-57.486664"
           y="123.98752"
           id="text1533-9-0-3"
           transform="rotate(-90)"><tspan
             sodipodi:role="line"
             id="tspan1531-8-9-4"
             x="-57.486664"
             y="123.98752"
             style="font-style:normal;font-variant:normal;font-weight:normal;font-stretch:normal;font-size:2.82222223px;font-family:sans-serif;-inkscape-font-specification:'sans-serif, Normal';font-variant-ligatures:normal;font-variant-caps:normal;font-variant-numeric:normal;font-feature-settings:normal;text-align:start;writing-mode:lr-tb;text-anchor:start;stroke-width:0.26458332">PWR</tspan></text>
      </g>
    </g>
    <text
       xml:space="preserve"
       style="font-style:normal;font-variant:normal;font-weight:normal;font-stretch:normal;font-size:2.82222223px;line-height:1.25;font-family:sans-serif;-inkscape-font-specification:'sans-serif, Normal';font-variant-ligatures:normal;font-variant-caps:normal;font-variant-numeric:normal;font-feature-settings:normal;text-align:start;letter-spacing:0px;word-spacing:0px;writing-mode:lr-tb;text-anchor:start;opacity:0.95999995;fill:#000000;fill-opacity:1;stroke:none;stroke-width:0.26458332"
       x="87.806618"
       y="95.224503"
       id="text1533-4-2-0"><tspan
         sodipodi:role="line"
         id="tspan1531-1-2-8"
         x="87.806618"
         y="95.224503"
         style="font-style:normal;font-variant:normal;font-weight:normal;font-stretch:normal;font-size:2.82222223px;font-family:sans-serif;-inkscape-font-specification:'sans-serif, Normal';font-variant-ligatures:normal;font-variant-caps:normal;font-variant-numeric:normal;font-feature-settings:normal;text-align:start;writing-mode:lr-tb;text-anchor:start;stroke-width:0.26458332">REGULATOR</tspan></text>
    <rect
       style="opacity:0.95999995;fill:none;fill-opacity:1;stroke:#000000;stroke-width:0.5;stroke-linecap:round;stroke-miterlimit:4;stroke-dasharray:none;stroke-dashoffset:0;stroke-opacity:1"
       id="rect1142-97-1-5-7"
       width="2.5400004"
       height="2.5400004"
       x="122.28102"
       y="86.981316" />
    <rect
       style="opacity:0.95999995;fill:none;fill-opacity:1;stroke:#000000;stroke-width:0.5;stroke-linecap:round;stroke-miterlimit:4;stroke-dasharray:none;stroke-dashoffset:0;stroke-opacity:1"
       id="rect1142-97-1-9-8-6"
       width="2.5400004"
       height="2.5400004"
       x="122.28102"
       y="89.521317" />
    <rect
       style="opacity:0.95999995;fill:none;fill-opacity:1;stroke:#000000;stroke-width:0.5;stroke-linecap:round;stroke-miterlimit:4;stroke-dasharray:none;stroke-dashoffset:0;stroke-opacity:1"
       id="rect1142-97-1-5-3-3"
       width="2.5400004"
       height="2.5400004"
       x="122.28102"
       y="79.361305" />
    <rect
       style="opacity:0.95999995;fill:none;fill-opacity:1;stroke:#000000;stroke-width:0.5;stroke-linecap:round;stroke-miterlimit:4;stroke-dasharray:none;stroke-dashoffset:0;stroke-opacity:1"
       id="rect1142-97-1-9-8-7-5"
       width="2.5400004"
       height="2.5400004"
       x="122.28102"
       y="81.901314" />
    <rect
       style="opacity:0.95999995;fill:none;fill-opacity:1;stroke:#000000;stroke-width:0.5;stroke-linecap:round;stroke-miterlimit:4;stroke-dasharray:none;stroke-dashoffset:0;stroke-opacity:1"
       id="rect1142-97-1-0-4-1-0"
       width="2.5400004"
       height="2.5400004"
       x="122.28102"
       y="84.441315" />
    <text
       xml:space="preserve"
       style="font-style:normal;font-variant:normal;font-weight:normal;font-stretch:normal;font-size:2.82222223px;line-height:1.25;font-family:sans-serif;-inkscape-font-specification:'sans-serif, Normal';font-variant-ligatures:normal;font-variant-caps:normal;font-variant-numeric:normal;font-feature-settings:normal;text-align:start;letter-spacing:0px;word-spacing:0px;writing-mode:lr-tb;text-anchor:start;opacity:0.95999995;fill:#000000;fill-opacity:1;stroke:none;stroke-width:0.26458332"
       x="-92.767532"
       y="120.46236"
       id="text1533-9-3-8"
       transform="rotate(-90)"><tspan
         sodipodi:role="line"
         id="tspan1531-8-8-0"
         x="-92.767532"
         y="120.46236"
         style="font-style:normal;font-variant:normal;font-weight:normal;font-stretch:normal;font-size:2.82222223px;font-family:sans-serif;-inkscape-font-specification:'sans-serif, Normal';font-variant-ligatures:normal;font-variant-caps:normal;font-variant-numeric:normal;font-feature-settings:normal;text-align:start;writing-mode:lr-tb;text-anchor:start;stroke-width:0.26458332">JTAG/SWD</tspan></text>
    <g
       transform="translate(-5.6099242,54.598379)"
       style="opacity:0.95999995"
       id="g1676-2-4">
      <g
         id="g2391-1"
         transform="translate(2.2678571,2.9293155)">
        <g
           id="g2491"
           transform="rotate(-90,126.48895,61.341576)">
          <g
             id="g2497"
             transform="translate(2.0788691,-1.3229167)">
            <g
               transform="translate(-0.80319941,4.5829613)"
               id="g1670-7-1">
              <rect
                 transform="rotate(90)"
                 ry="0"
                 y="-125.94151"
                 x="50.518288"
                 height="13.551711"
                 width="7.7559524"
                 id="rect815-8-6-8-0-3"
                 style="opacity:0.95999995;fill:none;fill-opacity:1;stroke:#000000;stroke-width:0.44254288;stroke-linecap:round;stroke-miterlimit:4;stroke-dasharray:none;stroke-dashoffset:0;stroke-opacity:1" />
            </g>
            <text
               xml:space="preserve"
               style="font-style:normal;font-variant:normal;font-weight:normal;font-stretch:normal;font-size:2.82222223px;line-height:1.25;font-family:sans-serif;-inkscape-font-specification:'sans-serif, Normal';font-variant-ligatures:normal;font-variant-caps:normal;font-variant-numeric:normal;font-feature-settings:normal;text-align:start;letter-spacing:0px;word-spacing:0px;writing-mode:lr-tb;text-anchor:start;opacity:0.95999995;fill:#000000;fill-opacity:1;stroke:none;stroke-width:0.26458332"
               x="112.2633"
               y="59.931072"
               id="text1533-9-0-3-5"><tspan
                 sodipodi:role="line"
                 id="tspan1531-8-9-4-9"
                 x="112.2633"
                 y="59.931072"
                 style="font-style:normal;font-variant:normal;font-weight:normal;font-stretch:normal;font-size:2.82222223px;font-family:sans-serif;-inkscape-font-specification:'sans-serif, Normal';font-variant-ligatures:normal;font-variant-caps:normal;font-variant-numeric:normal;font-feature-settings:normal;text-align:start;writing-mode:lr-tb;text-anchor:start;stroke-width:0.26458332">HANDLE</tspan></text>
          </g>
        </g>
      </g>
    </g>
  </g>
</svg>
