(footprint "GF-126-0312" (version 20221018) (generator pcbnew)
  (layer "F.Cu")
  (attr through_hole)
  (fp_text reference "REF**" (at -2.75 2.31) (layer "F.SilkS")
      (effects (font (size 1 1) (thickness 0.15)))
    (tstamp 00000000-0000-0000-0000-000000000000)
  )
  (fp_text value "GF-126-0312" (at 0.82 4.07) (layer "F.Fab")
      (effects (font (size 1 1) (thickness 0.15)))
    (tstamp 00000000-0000-0000-0000-000000000000)
  )
  (pad "1" thru_hole circle (at 0 -6.91) (size 3 3) (drill 1.65) (layers "*.Cu" "*.Mask") (tstamp 00000000-0000-0000-0000-000000000000))
  (pad "1" thru_hole circle (at 0 0) (size 3 3) (drill 1.65) (layers "*.Cu" "*.Mask") (tstamp 00000000-0000-0000-0000-000000000000))
  (pad "2" thru_hole circle (at 4.6 -6.91) (size 3 3) (drill 1.65) (layers "*.Cu" "*.Mask") (tstamp 00000000-0000-0000-0000-000000000000))
  (pad "2" thru_hole circle (at 4.6 0) (size 3 3) (drill 1.65) (layers "*.Cu" "*.Mask") (tstamp 00000000-0000-0000-0000-000000000000))
  (pad "3" thru_hole circle (at 9.2 -6.91) (size 3 3) (drill 1.65) (layers "*.Cu" "*.Mask") (tstamp 00000000-0000-0000-0000-000000000000))
  (pad "3" thru_hole circle (at 9.2 0) (size 3 3) (drill 1.65) (layers "*.Cu" "*.Mask") (tstamp 00000000-0000-0000-0000-000000000000))
  (model "${KIPRJMOD}/packages3D/gf1260312.step"
    (offset (xyz -3.5 3.5 -3.8))
    (scale (xyz 1 1 1))
    (rotate (xyz 0 0 90))
  )
)
