(footprint "LeverSwitch_DPDT" (version 20221018) (generator pcbnew)
  (layer "F.Cu")
  (attr through_hole)
  (fp_text reference "REF**" (at -2.75 2.31) (layer "F.SilkS")
      (effects (font (size 1 1) (thickness 0.15)))
    (tstamp 00000000-0000-0000-0000-000000000000)
  )
  (fp_text value "LeverSwitch_DPDT" (at 0.82 4.07) (layer "F.Fab")
      (effects (font (size 1 1) (thickness 0.15)))
    (tstamp 00000000-0000-0000-0000-000000000000)
  )
  (pad "1" thru_hole circle (at 0 -4.83) (size 3 3) (drill 1.85) (layers "*.Cu" "*.Mask") (tstamp 00000000-0000-0000-0000-000000000000))
  (pad "1" thru_hole circle (at 0 0) (size 3 3) (drill 1.85) (layers "*.Cu" "*.Mask") (tstamp 00000000-0000-0000-0000-000000000000))
  (pad "2" thru_hole circle (at 4.7 -4.83) (size 3 3) (drill 1.85) (layers "*.Cu" "*.Mask") (tstamp 00000000-0000-0000-0000-000000000000))
  (pad "2" thru_hole circle (at 4.7 0) (size 3 3) (drill 1.85) (layers "*.Cu" "*.Mask") (tstamp 00000000-0000-0000-0000-000000000000))
  (pad "3" thru_hole circle (at 9.4 -4.83) (size 3 3) (drill 1.85) (layers "*.Cu" "*.Mask") (tstamp 00000000-0000-0000-0000-000000000000))
  (pad "3" thru_hole circle (at 9.4 0) (size 3 3) (drill 1.85) (layers "*.Cu" "*.Mask") (tstamp 00000000-0000-0000-0000-000000000000))
  (model "${KIPRJMOD}/packages3D/100DPxT1B1M2xE.stp"
    (offset (xyz 4.7 2.4 1.8))
    (scale (xyz 1 1 1))
    (rotate (xyz 0 0 0))
  )
)
